[
	{
		"id": "apprentice",
		"desc": "Apprentice to a notable wizard.",
		"actname": "Apprenticeship",
		"actdesc": "Become an apprentice.",
		"require": "research",
		"disable": ["cleanstables"],
		"warn": false,
		"log": {
			"name": "Apprentice",
			"desc": "After paying a small fee, you became apprenticed to a local wizard."
		},
		"cost": {
			"research": 10,
			"gold": 20
		},
		"result": {
			"research.max": 10,
			"player.exp": 5,
			"sp": 1
		}
	},
	{
		"id": "job_smith",
		"name": "Smith",
		"tags": "t_job,t_placeholder",
		"actdesc": "Smith equipment for your master to enchant.",
		"require": "g.crafting>=5",
		"warn": true,
		"cost": {
			"gold": 250,
			"arcana": 1
		},
		"result": {
			"evt_helper": true,
			"sp": 1.5,
			"player.exp": 20
		},
		"mod": {
			"gold.rate": 0.1,
			"lore.max": 1,
			"crafting.max": 3,
			"enchanting.max": 2,
			"languages.max": -1
		}
	},
	{
		"id": "falconer",
		"tags": "t_job",
		"actdesc": "Tend your master's owls and falcons.",
		"require": "animals",
		"cost": {
			"gold": 100,
			"research": 100,
			"arcana": 2
		},
		"result": {
			"evt_helper": true,
			"sp": 1.25,
			"player.exp": 10
		},
		"mod": {
			"gold.rate": 0.1,
			"lore.max": 2,
			"animals.max": 3,
			"nature.max": 2
		}
	},
	{
		"id": "herbalist",
		"tags": "t_job",
		"actdesc": "Gather herbs for your master's potions and alchemy.",
		"require": "herbalism",
		"cost": {
			"gold": 100,
			"research": 100,
			"arcana": 2
		},
		"result": {
			"evt_helper": true,
			"sp": 1.5,
			"player.exp": 10
		},
		"mod": {
			"gold.rate": 0.1,
			"lore.max": 2,
			"herbalism.max": 3,
			"alchemy.max": 2
		}
	},
	{
		"id": "scribe",
		"tags": "t_job",
		"actdesc": "Become your master's personal scribe.",
		"require": "scribescroll",
		"cost": {
			"gold": 100,
			"research": 100,
			"arcana": 2
		},
		"result": {
			"evt_helper": true,
			"sp": 1
		},
		"mod": {
			"gold.rate": 0.1,
			"research.max": 10,
			"arcana.rate": 0.0001,
			"lore.max": 2,
			"history.max": 1,
			"languages.max": 2
		},
		"flavor": "When I get a little money I buy books, and if any is left I buy food and clothes."
	},
	{
		"id": "neophyte",
		"actdesc": "The final step on the twisting stairwell of apprenticeship.",
		"require": "(g.evt_helper>0)&&g.research.max>=125&&g.spellbook>0",
		"log": {
			"name": "Neophyte",
			"desc": "Your master has decided you are ready to take the next step on the path of wizardry."
		},
		"flavor": "Why does Master charge so many fees?",
		"cost": {
			"gold": 150,
			"research": 175,
			"arcana": 3
		},
		"result": {
			"sp": 1,
			"player.exp": 10
		},
		"mod": {
			"research.max": 10,
			"arcana.rate": 0.0001,
			"lore.max": 1
		}
	},
	{
		"id": "adept",
		"name": "adept",
		"tags": "t_tier0",
		"desc": "Your master behind you, you set off into the world alone. You had better find a new place to stay.",
		"mod": {
			"tier0": true,
			"mysticism.max": 1
		}
	},
	{
		"id": "redadept",
		"name": "red adept",
		"desc": "Go on a journey to further your capabilities in combat.",
		"secret": true,
		"require": "g.arcanaaction>0&&g.research.max>=100&&g.lore>=4",
		"need": "g.evt_early_combat>0",
		"needtext": "Must have reached a commoner's limit by clearing edges of treffil's woods before making a spellbook",
		"tags": "t_tier0",
		"cost": {
			"arcana": 5
		},
		"mod": {
			"tier0": true,
			"anatomy.max": 1,
			"vivification.max": 1,
			"firelore.max": 1,
			"earthlore.max": 1,
			"mysticism.max": 1,
			"concentrate.max": -1,
			"spiritlore.max": -1,
			"crafting.max": -1
		},
		"flavor": "Danger is just an excuse for the weak."
	},
	{
		"id": "blueadept",
		"name": "blue adept",
		"desc": "Dedicate yourself to putting the world in order.",
		"secret": true,
		"require": "g.arcanaaction>0&&g.research.max>=100&&g.lore>=4",
		"need": "g.virtue>=200",
		"needtext": "Must have at least 200 virtue",
		"tags": "t_tier0",
		"cost": {
			"arcana": 5
		},
		"mod": {
			"tier0": true,
			"history.max": 1,
			"waterlore.max": 1,
			"airlore.max": 1,
			"mysticism.max": 1,
			"shadowlore.max": -1,
			"naturelore.max": -1
		}
	},
	{
		"id": "savant",
		"name": "mystic savant",
		"desc": "You have no need of these dry tomes and musty old books.",
		"secret": true,
		"actname": "Forgo Studies",
		"tags": "t_tier0",
		"require": "g.arcanaaction>0&&g.research.max>=100&&g.lore>=4",
		"need": "g.study<=0",
		"needtext": "You cannot have used the study action at any point",
		"cost": {
			"arcana": 3
		},
		"result": {
			"sp": 1
		},
		"mod": {
			"tier0": true,
			"research.rate": 0.2,
			"mana.max": 2,
			"mysticism.max": 2,
			"conjuration.max": 1,
			"spiritlore.max": 1,
			"lore.max": -1,
			"history.max": -1
		}
	},
	{
		"id": "magician",
		"tags": "t_tier1,t_manaclass,t_knowledgeclass",
		"desc": "Magic in its purest form.",
		"actdesc": "Pursue the path of pure magic.",
		"require": "g.tier0>0&&g.lore>=10",
		"cost": {
			"research": 500,
			"codices": 2,
			"arcana": 15,
			"gold": 500
		},
		"result": {
			"sp": 1
		},
		"mod": {
			"tier1": true,
			"research.max": 100,
			"arcana.rate": 0.001,
			"mana.max": 2,
			"mana.rate": 0.4,
			"mysticism.mod.mana.rate": 0.05,
			"lore.max": 1,
			"astronomy.max": 1,
			"languages.max": 1
		}
	},
	{
		"id": "trickster",
		"name": "arcane trickster",
		"desc": "Use magic for deceit and trickery.",
		"secret": true,
		"actname": "Path of Trickery",
		"tags": "t_tier1,t_chaosclass",
		"require": "g.trickery>=4&&g.tier0>0&&g.tier1==0",
		"cost": {
			"research": 250,
			"codices": 5,
			"gems": 10,
			"gold": 300,
			"arcana": 5
		},
		"result": {
			"sp": 3
		},
		"mod": {
			"tier1": true,
			"player.dodge": 2.2,
			"research.max": 2,
			"mana.max": 2,
			"chaos.max": 3,
			"chaos.rate": 0.1,
			"trickery.max": 2,
			"conjuration.max": 1,
			"spiritlore.max": 1,
			"potions.max": 1
		}
	},
	{
		"id": "madcap",
		"name": "mystic madcap",
		"desc": "A penchant for chaos.",
		"secret": true,
		"tags": "t_tier2,t_chaosclass",
		"require": "g.trickery>=7&&g.tier1>0&&g.tier2==0",
		"cost": {
			"research": 777,
			"gems": 7,
			"managem": 7,
			"airgem": 7,
			"watergem": 7,
			"codices": 7,
			"gold": 777,
			"arcana": 7
		},
		"result": {
			"sp": 3
		},
		"mod": {
			"tier2": true,
			"player.dodge": 2.2,
			"gold.max": "5%",
			"trickery.max": 2,
			"conjuration.max": 1,
			"mysticism.max": 1,
			"potions.max": 1,
			"lore.max": 1
		}
	},
	{
		"id": "jester",
		"name": "jester",
		"desc": "Elevate pranks to a new height of artform and wizardry.",
		"secret": true,
		"actname": "Infinite Jest",
		"tags": "t_tier4,t_chaosclass",
		"require": "g.trickery>=15&&g.t_chaosclass>0&&g.tier3>0&&g.tier4==0",
		"cost": {
			"research": 1313,
			"gems": 13,
			"managem": 13,
			"airgem": 13,
			"watergem": 13,
			"tomes": 13,
			"codices": 26,
			"gold": 1313,
			"arcana": 13
		},
		"result": {
			"sp": 3
		},
		"mod": {
			"tier4": true,
			"player.dodge": 2.6,
			"gold.max": "10%",
			"facemuseum.mod.space.max": 20,
			"trickery.max": 3,
			"conjuration.max": 2,
			"lore.max": 2,
			"chaoslore.max": 1,
			"mysticism.max": 1
		}
	},
	{
		"id": "battlemage",
		"name": "battle mage",
		"tags": "t_tier2,t_swordclass,t_manaclass",
		"actdesc": "Pursue the path of battle.",
		"require": "g.tier1>0&&g.weaponlore>=6&&g.tier2==0",
		"cost": {
			"research": 500,
			"codices": 10,
			"arcana": 7,
			"gold": 800,
			"gems": 20
		},
		"result": {
			"sp": 1
		},
		"mod": {
			"tier2": true,
			"mana.max": 4,
			"mana.rate": 0.5,
			"firelore.max": 2,
			"earthlore.max": 1
		}
	},
	{
		"id": "bloodmage",
		"name": "blood mage",
		"tags": "t_tier3,t_bloodclass,t_manaclass",
		"desc": "The magic in your veins.",
		"require": "g.tier2>0&&(g.battlemage>0||g.hp.max>=150)&&g.tier3==0",
		"cost": {
			"research": 1500,
			"tomes": 5,
			"arcana": 8,
			"gold": 700,
			"bloodgem": 20
		},
		"result": {
			"sp": 1
		},
		"mod": {
			"tier3": true,
			"bloodgem.max": 10,
			"bloodgem.mod.bloodsiphon.effect.hp": 0.02,
			"mana.max": 2,
			"mana.rate": 0.5,
			"anatomy.max": 3,
			"earthlore.max": 2,
			"waterlore.max": 1
		}
	},
	{
		"id": "summoner",
		"tags": "t_tier3,t_summonclass",
		"desc": "Alone or with friends, a summoner is never without an army.",
		"require": "g.summoning>=5&&g.tier2>0&&g.lore>=20",
		"cost": {
			"research": 2000,
			"arcana": 20,
			"tomes": 5
		},
		"result": {
			"sp": 1
		},
		"mod": {
			"tier3": true,
			"minions.max": 1,
			"mana.max": 2,
			"summoning.max": 4,
			"conjuration.max": 2,
			"charms.max": 1,
			"lore.max": 2
		},
		"flavor": "How you do I; hope you've met my..."
	},
	{
		"id": "warden",
		"desc": "A keeper of the forests, mountains, and hills.",
		"tags": "t_tier1,t_natureclass",
		"require": "g.tier0>0&&g.naturelore>=8",
		"cost": {
			"research": 500,
			"naturegem": 5,
			"herbs": 50,
			"arcana": 5
		},
		"result": {
			"sp": 1
		},
		"mod": {
			"tier1": true,
			"research.max": 5,
			"naturelore.max": 3,
			"animals.max": 3,
			"potions.max": 1
		}
	},
	{
		"id": "alchemist",
		"tags": "t_tier2,t_bloodclass,t_potionclass,t_craftingclass",
		"desc": "An alchemist uses magical knowledge to craft wonders.",
		"require": "g.tier1>0&&g.potions>=4&&g.alchemy>=5",
		"cost": {
			"research": 1000,
			"codices": 5,
			"managem": 5,
			"firegem": 2,
			"watergem": 2,
			"earthgem": 2,
			"arcana": 20
		},
		"result": {
			"sp": 3
		},
		"mod": {
			"tier2": true,
			"research.max": 100,
			"crafting.max": 3,
			"potions.max": 3,
			"potionessence.rate": 0.00028,
			"alchemy.max": 3,
			"lore.max": 1
		}
	},
	{
		"id": "enchanter",
		"desc": "A master of charms and enchantments.",
		"require": "g.tier1>0&&g.enchanting>=6&&g.charms>=3",
		"tags": "t_tier2,t_craftingclass,t_enchantingclass",
		"cost": {
			"research": 1000,
			"managem": 5,
			"codices": 5,
			"arcana": 20
		},
		"result": {
			"sp": 2
		},
		"mod": {
			"tier2": true,
			"research.max": 15,
			"enchanting.max": 3,
			"arcana.max": 2,
			"naturelore.max": 2,
			"mana.max": 3,
			"airlore.max": 2,
			"waterlore.max": 2
		}
	},
	{
		"id": "geomancer",
		"desc": "Lord of rocks.",
		"tags": "t_tier2,t_earthclass,t_hammerclass",
		"actdesc": "A mage specialising in earth manipulation and endurance.",
		"require": "g.tier1>0&&g.earthlore>=7&&g.tier2==0",
		"cost": {
			"research": 1000,
			"arcana": 15,
			"codices": 5,
			"earthgem": 10
		},
		"result": {
			"sp": 2
		},
		"mod": {
			"tier2": true,
			"earthlore.max": 2,
			"geosculpting.max": 2,
			"stamina.max": "10%",
			"mana.max": 2,
			"earthspire.mod.space.max": 50
		},
		"flavor": "Your empire of dirt."
	},
	{
		"id": "earthshaker",
		"desc": "Master of the tectonics.",
		"tags": "t_tier4,t_earthclass,t_hammerclass",
		"actdesc": "A supreme master of earth's destructive magics.",
		"require": "g.tier3>0&&g.earthlore>=11&&g.tier4==0",
		"cost": {
			"research": 4000,
			"arcana": 25,
			"tomes": 15,
			"earthgem": 50
		},
		"result": {
			"sp": 2
		},
		"mod": {
			"tier4": true,
			"earthlore.max": 3,
			"player.defense": 15,
			"stamina.max": "20%",
			"earth.rate": 0.3,
			"earthspire.mod.space.max": 50
		},
		"flavor": "Finally, a subduction license!"
	},
	{
		"id": "titan",
		"desc": "A mantle of metal and stone.",
		"tags": "t_tier6,t_earthclass,t_hammerclass",
		"actdesc": "An unstoppable force of nature, a Titan is Will incarnate.",
		"require": "g.tier5>0&&g.t_earthclass>0&&g.hammerlore>=10&&g.geosculpting>=10&&g.tier6==0",
		"cost": {
			"research": 10000,
			"arcana": 50,
			"tomes": 20,
			"earthgem": 100,
			"earthrune": 20
		},
		"result": {
			"sp": 2
		},
		"mod": {
			"tier6": true,
			"earthlore.max": 3,
			"player.defense": 30,
			"stamina.max": "20%",
			"hammerlore.max": 3,
			"earthspire.mod.space.max": 100
		},
		"flavor": "When in good moods, Titans sculpted mountains. In bad ones, nations became craters."
	},
	{
		"id": "hydromancer",
		"desc": "Master of water.",
		"tags": "t_tier2,t_waterclass",
		"actdesc": "A mage specialising in water manipulation and adaptability.",
		"require": "g.tier1>0&&g.waterlore>=10",
		"cost": {
			"research": 1000,
			"arcana": 15,
			"codices": 5,
			"watergem": 10
		},
		"result": {
			"sp": 2
		},
		"mod": {
			"tier2": true,
			"waterlore.max": 2,
			"dodge": "10%",
			"mana.max": 2
		},
		"flavor": ""
	},
	{
		"id": "windmage",
		"name": "wind mage",
		"desc": "To walk on the wind.",
		"tags": "t_tier2,t_airclass",
		"actdesc": "A mage specialising in air manipulation and intuition.",
		"require": "g.tier1>0&&g.airlore>=10",
		"cost": {
			"research": 1000,
			"arcana": 15,
			"codices": 5,
			"airgem": 10
		},
		"result": {
			"sp": 2
		},
		"mod": {
			"tier2": true,
			"airlore.max": 2,
			"dodge": "10%",
			"mana.max": 2
		},
		"flavor": "There's a storm coming."
	},
	{
		"id": "stormcaller",
		"desc": "Harness the violence of natural forces.",
		"require": "g.t_waterclass>0||g.t_airclass>0",
		"tags": "t_tier3,t_waterclass,t_airclass",
		"cost": {
			"research": 2000,
			"arcana": 25,
			"airgem": 20,
			"watergem": 20,
			"tomes": 5
		},
		"result": {
			"sp": 1
		},
		"mod": {
			"tier3": true,
			"lore.max": 1,
			"mana.max": 2,
			"airlore.max": 3,
			"waterlore.max": 3
		},
		"flavor": "I am the storm."
	},
	{
		"id": "elementalist",
		"desc": "Master of elemental forces.",
		"require": "g.tier0>0&&g.airlore>=3&&g.firelore>=3&&g.earthlore>=3&&g.waterlore>=3",
		"tags": "t_tier1,t_elementalclass",
		"cost": {
			"arcana": 12,
			"research": 250,
			"codices": 5,
			"gems": 10
		},
		"result": {
			"sp": 1
		},
		"mod": {
			"tier1": true,
			"research.max": 5,
			"elemental.max": 2,
			"elemental.rate": 0.2
		}
	},
	{
		"id": "sorcerer",
		"desc": "A wielder of raw magical power.",
		"require": "g.tier3>0&&(g.earthlore>=15||g.waterlore>=15||g.firelore>=15)&&(g.t_elementalclass+g.t_fireclass+g.t_waterclass+g.t_earthclass)>0",
		"tags": "t_tier4,t_elementalclass",
		"cost": {
			"research": 3000,
			"tomes": 15,
			"managem": 5,
			"firegem": 15,
			"earthgem": 15,
			"watergem": 15,
			"arcana": 25
		},
		"result": {
			"sp": 1
		},
		"mod": {
			"tier4": true,
			"lore.max": 1,
			"mana.max": 1,
			"earthlore.max": 2,
			"waterlore.max": 2,
			"firelore.max": 2
		}
	},
	{
		"id": "druid",
		"desc": "A spellcaster dedicated to the natural world.",
		"tags": "t_tier3,t_natureclass",
		"require": "g.tier2>0&&g.naturelore>=15",
		"cost": {
			"research": 1000,
			"tomes": 5,
			"naturegem": 20,
			"herbs": 50,
			"arcana": 20
		},
		"result": {
			"sp": 1
		},
		"mod": {
			"tier3": true,
			"naturelore.max": 3,
			"animals.max": 2,
			"herbalism.max": 2,
			"potions.max": 1
		}
	},
	{
		"id": "highelemental",
		"name": "high elementalist",
		"tags": "t_tier3,t_elementalclass",
		"desc": "Lord of the elements.",
		"require": "g.tier2>0&&g.airlore>=8&&g.firelore>=8&&g.waterlore>=8&&g.earthlore>=8",
		"cost": {
			"arcana": 15,
			"research": 1000,
			"tomes": 5,
			"airgem": 20,
			"firegem": 20,
			"earthgem": 20,
			"watergem": 20
		},
		"result": {
			"sp": 2
		},
		"mod": {
			"tier3": true,
			"airlore.max": 2,
			"firelore.max": 2,
			"earthlore.max": 2,
			"waterlore.max": 2,
			"research.max": 25,
			"elemental.max": 2,
			"elemental.rate": 0.2
		}
	},
	{
		"id": "oracle",
		"tags": "t_tier1,t_divinationclass",
		"desc": "Fortune and misfortune are merely expressions of cause and effect.",
		"require": "g.tier0>0&&g.spiritlore>=5&&g.divination>=5",
		"cost": {
			"research": 250,
			"gems": 10,
			"codices": 5,
			"arcana": 5
		},
		"result": {
			"sp": 2
		},
		"mod": {
			"tier1": true,
			"virtue": 1,
			"research.max": 15,
			"lore.max": 2,
			"scrying.max": 2,
			"mana.max": 3,
			"divination.max": 2,
			"airlore.max": 1,
			"spiritlore.max": 1
		}
	},
	{
		"id": "seer",
		"desc": "Read the room, read the person, divine their future.",
		"require": "g.tier1>0&&g.divination>=10",
		"tags": "t_tier2,t_divinationclass",
		"cost": {
			"codices": 5,
			"arcana": 10,
			"research": 1000
		},
		"result": {
			"sp": 2
		},
		"mod": {
			"tier2": true,
			"virtue": 5,
			"lore.max": 2,
			"mana.max": 3,
			"divination.max": 2,
			"scrying.max": 2,
			"spiritlore.max": 2
		}
	},
	{
		"id": "mage",
		"desc": "Member of an arcane order.",
		"tags": "t_tier2,t_manaclass,t_knowledgeclass",
		"require": "g.tier1>0&&g.lore>=14",
		"cost": {
			"research": 1000,
			"arcana": 15,
			"codices": 5
		},
		"result": {
			"sp": 2
		},
		"mod": {
			"tier2": true,
			"research.max": 40,
			"firelore.max": 1,
			"mysticism.max": 2,
			"enchanting.max": 1,
			"lore.max": 2,
			"mana.max": 3
		}
	},
	{
		"id": "highmage",
		"name": "high mage",
		"desc": "Elite of an arcane order.",
		"tags": "t_tier3,t_manaclass,t_knowledgeclass",
		"require": "g.tier2>0&&g.lore>=21",
		"cost": {
			"research": 2000,
			"arcana": 20,
			"tomes": 5
		},
		"result": {
			"sp": 2
		},
		"mod": {
			"tier3": true,
			"research.max": 50,
			"firelore.max": 1,
			"mysticism.max": 2,
			"alchemy.max": 1,
			"spellcraft.max": 2,
			"crafting.max": 1,
			"lore.max": 2
		}
	},
	{
		"id": "doomsayer",
		"desc": "Harbinger of ruin.",
		"require": "g.tier2>0&&g.spirit>=12&&g.divination>=12",
		"tags": "t_tier3,t_divinationclass",
		"cost": {
			"research": 500,
			"arcana": 15,
			"tomes": 7,
			"spiritgem": 15
		},
		"result": {
			"sp": 2
		},
		"mod": {
			"tier3": true,
			"spiritlore.max": 2,
			"divination.max": 3,
			"planeslore.max": 1,
			"scrying.max": 2,
			"lore.max": 2,
			"mana.max": 1
		},
		"flavor": "You call it an empire, but in the gloaming I see only heaps of crumbled stone."
	},
	{
		"id": "fey",
		"desc": "A being of wild and natural magic.",
		"tags": "t_tier4,t_chaosclass,t_natureclass",
		"require": "g.tier3>0&&g.naturelore>=18&&(g.t_natureclass+g.t_elementalclass+g.neutral+g.t_chaosclass)>=2",
		"cost": {
			"research": 5000,
			"naturegem": 30,
			"herbs": 75,
			"arcana": 15,
			"runestones": 5
		},
		"result": {
			"sp": 1
		},
		"mod": {
			"tier4": true,
			"waterlore.max": 2,
			"earthlore.max": 2,
			"airlore.max": 2,
			"naturelore.max": 3,
			"animals.max": 2,
			"herbalism.max": 2
		},
		"flavor": "'Will you drink from the goblet?' she asked. 'The transformation cannot be undone.'"
	},
	{
		"id": "destined",
		"alias": "thaumaturge",
		"name": "destined",
		"desc": "A maker of miracles",
		"require": "g.tier3>0&&g.spirit>=15&&g.divination>=15",
		"tags": "t_tier4,t_enchantingclass,t_divinationclass",
		"cost": {
			"research": 6000,
			"arcana": 25,
			"tomes": 15,
			"spiritgem": 20,
			"runestones": 5
		},
		"result": {
			"sp": 2
		},
		"mod": {
			"tier4": true,
			"spiritlore.max": 2,
			"divination.max": 3,
			"spellcraft.max": 2,
			"lore.max": 2,
			"light.max": 2,
			"light.rate": "0.2+5%",
			"mana.max": 3
		}
	},
	{
		"id": "wizard",
		"desc": "Raw magic power.",
		"tags": "t_tier4,t_manaclass,t_knowledgeclass",
		"require": "g.tier3>0&&g.lore>=25&&(g.evil1==0||g.good2==1)",
		"cost": {
			"research": 6000,
			"arcana": 25,
			"tomes": 15,
			"runestones": 5
		},
		"result": {
			"sp": 2
		},
		"mod": {
			"tier4": true,
			"languages.max": 2,
			"conjuration.max": 1,
			"crafting.max": 1,
			"lore.max": 3,
			"spellcraft.max": 3,
			"mana.max": 4,
			"mana.rate": "5%",
			"mysticism.max": 1,
			"spelllist.max": 5
		},
		"flavor": "'Do not take me for some conjurer of cheap tricks.'"
	},
	{
		"id": "wizard2",
		"alias": "dhrunic wizard",
		"name": "dhrunic wizard",
		"desc": "Raw magic power.",
		"tags": "t_tier5,t_manaclass,t_knowledgeclass",
		"require": "g.tier4>0&&g.lore>=30",
		"cost": {
			"research": 15000,
			"arcana": 30,
			"tomes": 10,
			"runestones": 10
		},
		"mod": {
			"tier5": true,
			"languages.max": 2,
			"firelore.max": 1,
			"waterlore.max": 1,
			"airlore.max": 1,
			"lightlore.max": 1,
			"crafting.max": 2,
			"lore.max": 5,
			"mana.max": 4,
			"mana.rate": "10%",
			"mysticism.max": 1,
			"mysticism.mod.mana.rate": 0.05,
			"spelllist.max": 5
		},
		"flavor": "In the end it was three Thule Wizards and The Necromancer who brought the locks to heel."
	},
	{
		"id": "kell",
		"desc": "Immortal spirits of nature, even the weakest Kell are beings to rival wizards.",
		"tags": "t_tier5,t_natureclass",
		"require": "g.tier4>0&&g.naturelore>=21&&((g.neutral+g.t_natureclass)>=2||g.fey>0||g.druid>0)",
		"cost": {
			"research": 15000,
			"naturegem": 50,
			"herbs": 75,
			"arcana": 20,
			"runestones": 15
		},
		"mod": {
			"tier5": true,
			"lore.max": 2,
			"airlore.max": 2,
			"naturelore.max": 3,
			"animals.max": 2,
			"herbalism.max": 1
		},
		"flavor": "Kell are not of mortal blood, and only potent magics can imbue a mortal with their essence."
	},
	{
		"id": "heresiarch",
		"desc": "A reckoning comes.",
		"require": "g.tier4>0&&g.spirit>=15&&g.divination>=17",
		"tags": "t_tier5,t_divinationclass",
		"cost": {
			"research": 15000,
			"arcana": 25,
			"tomes": 15,
			"spiritgem": 50,
			"runestones": 10
		},
		"result": {
			"sp": 2
		},
		"mod": {
			"tier5": true,
			"spiritlore.max": 3,
			"divination.max": 3,
			"scrying.max": 2,
			"lore.max": 2
		},
		"flavor": "It waits in time."
	},
	{
		"id": "highkell",
		"name": "high kell",
		"desc": "The ranks of the Kell range from the lesser Fey and forest Delki, to ancient spirits, old and indomitable.",
		"tags": "t_tier6,t_natureclass",
		"require": "g.tier5>0&&(g.fey+g.kell)>0",
		"cost": {
			"research": 15000,
			"naturegem": 50,
			"herbs": 75,
			"arcana": 35,
			"waterrune": 15,
			"runestones": 15
		},
		"mod": {
			"tier6": true,
			"airlore.max": 2,
			"naturelore.max": 3,
			"animals.max": 2,
			"earthlore.max": 1
		},
		"flavor": "'It's of no consequence to me,' replied Jora. 'I do not die Trill, and there are few things in this world that could do the trick."
	},
	{
		"id": "wizard3",
		"name": "mythic wizard",
		"desc": "Their names reappear throughout the ages, and few believe they ever existed.",
		"tags": "t_tier6,t_manaclass,t_knowledgeclass",
		"require": "g.tier5>0&&g.lore>=35&&g.spellcraft>=10&&(g.evil1==0||g.good2==1)",
		"cost": {
			"research": 20000,
			"arcana": 75,
			"tomes": 20,
			"sindel": 3,
			"runestones": 10
		},
		"mod": {
			"tier6": true,
			"spellcraft.max": 1,
			"firelore.max": 1,
			"enchanting.max": 1,
			"waterlore.max": 1,
			"earthlore.max": 1,
			"crafting.max": 2,
			"history.max": 1,
			"potions.max": 1,
			"alchemy.max": 1,
			"mana.max": 5,
			"mana.rate": "15%",
			"mysticism.max": 2,
			"spelllist.max": 5
		},
		"flavor": "After a mythic ascends, even the Archlocks curb their appetites."
	},
	{
		"id": "astralseer",
		"name": "astral seer",
		"desc": "The stars are an open book, to those who can read.",
		"tags": "t_tier6",
		"require": "g.tier5>0&&g.astronomy>=15&&g.planeslore>=12",
		"cost": {
			"research": 17000,
			"arcana": 75,
			"tomes": 20,
			"sindel": 3
		},
		"mod": {
			"tier6": true,
			"manadmg": 5,
			"spellcraft.max": 1,
			"planeslore.max": 2,
			"astronomy.max": 2,
			"scrying.max": 1,
			"sindel.rate": "5%",
			"mysticism.max": 2,
			"crafting.max": 2
		},
		"flavor": "Standing in the distant light of celestials, the mortal world seems so... Petty."
	},
	{
		"id": "c_avatar",
		"name": "avatar",
		"desc": "An incarnation of raw, elemental forces.",
		"tags": "t_tier6,t_elementalclass",
		"require": "g.tier5>0&&(g.t_elementalclass+g.t_natureclass+g.heresiarch+g.destined)>=2",
		"cost": {
			"research": 20000,
			"sindel": 3,
			"managem": 70,
			"airgem": 40,
			"earthgem": 40,
			"firegem": 40,
			"watergem": 40,
			"sp": 10,
			"arcana": 35,
			"runestones": 15
		},
		"mod": {
			"tier6": true,
			"airlore.max": 2,
			"earthlore.max": 3,
			"waterlore.max": 2,
			"firelore.max": 1
		},
		"flavor": "'I am the flood and the tempest, the whisper-wind and the inferno'."
	},
	{
		"id": "conjurer",
		"tags": "t_tier1,t_summonclass",
		"desc": "A master of quickly moving things from one place to another.",
		"require": "g.conjuration>=5&&g.tier0>0",
		"cost": {
			"research": 250,
			"arcana": 10,
			"codices": 5
		},
		"result": {
			"sp": 1
		},
		"mod": {
			"tier1": true,
			"minions.max": 1,
			"summoning.max": 2,
			"charms.max": 1,
			"lore.max": 2,
			"mana.max": 2,
			"conjuration.max": 4
		},
		"flavor": "Surely they can't 'just appear'..."
	}
]
