[
	{
		"id": "leavemaster",
		"name": "End Apprenticeship",
		"desc": "Purchase freedom from your apprenticeship. You will become an independent practitioner of magic.",
		"warn": true,
		"require": "g.arcanaaction>0&&g.research.max>=100&&g.lore>=4",
		"repeat": false,
		"cost": {
			"research": 225,
			"arcana": 5,
			"gold": 200
		},
		"result": "adept",
		"group": "apprenticeship"
	},
	{
		"id": "slaymaster",
		"name": "Slay Master",
		"desc": "Murder your master in their sleep.",
		"require": "g.arcanaaction>0&&g.research.max>=100&&g.lore>=4",
		"warn": true,
		"repeat": false,
		"flavor": "Save heaps of money with the power of evil.",
		"cost": {
			"research": 225,
			"arcana": 5
		},
		"log": {
			"name": "Master Slain",
			"desc": "Your master was a fool. A quick murder in the dark put an end to their petty demands, and frees you to pursue your own grander designs."
		},
		"result": {
			"adept": true,
			"evil": true,
			"bodies": 1,
			"player.exp": 10
		},
		"group": "apprenticeship"
	},
	{
		"id": "flyingcarpet",
		"name": "flying carpet",
		"require": "g.weaving>=4&&g.airlore>=10",
		"flavor": "A whole new world.",
		"slot": "mount",
		"buy": {
			"gems": 20,
			"research": 300,
			"airgem": 5,
			"gold": 300,
			"arcana": 1
		},
		"mod": {
			"dist": 300
		},
		"group": "mount"
	},
	{
		"id": "timesplit",
		"desc": "Perform tasks of different types simultaneously.",
		"require": "g.chronomancy>=5",
		"max": 1,
		"cost": {
			"arcana": 10,
			"tempus": 5
		},
		"mod": {
			"runner.max": 1
		},
		"group": "actions"
	},
	{
		"id": "mule",
		"desc": "A mount that doesn't require much training.",
		"require": "g.player.level>=4||g.animals>=2",
		"slot": "mount",
		"tags": "steed",
		"buy": {
			"gold": 100
		},
		"mod": {
			"dist": 15,
			"inv.max": 2
		},
		"group": "mount"
	},
	{
		"id": "oldnag",
		"name": "old nag",
		"desc": "This horse has seen better days.",
		"require": "g.animals>=3",
		"slot": "mount",
		"tags": "steed",
		"buy": {
			"gold": 200
		},
		"mod": {
			"dist": 30
		},
		"group": "mount"
	},
	{
		"id": "gelding",
		"name": "demure gelding",
		"desc": "A calm and sturdy horse, for moderate journeys.",
		"slot": "mount",
		"tags": "steed",
		"require": "stables",
		"buy": {
			"gold": 500,
			"gems": 2
		},
		"mod": {
			"dist": 55,
			"stress.max": 1
		},
		"group": "mount"
	},
	{
		"id": "bayhorse",
		"name": "fine bay",
		"desc": "A fine horse in its prime.",
		"require": "stables",
		"slot": "mount",
		"tags": "steed",
		"buy": {
			"gold": 900,
			"gems": 5
		},
		"mod": {
			"dist": 100,
			"speed": 2
		},
		"group": "mount"
	},
	{
		"id": "firecharger",
		"name": "fire charger",
		"desc": "Hooves of flame leave lines of fire in the ground.",
		"require": "g.firelore>=5&&g.magicbeasts>=5&&g.stables>0",
		"need": "stables",
		"slot": "mount",
		"tags": "steed",
		"buy": {
			"research": 500,
			"arcana": 1,
			"fire": 5,
			"firegem": 5
		},
		"mod": {
			"dist": 275,
			"fire.rate": 0.1
		},
		"group": "mount"
	},
	{
		"id": "fly",
		"desc": "Fly on the winds.",
		"require": "g.airlore>=16",
		"slot": "mount",
		"buy": {
			"arcana": 20,
			"research": 10000,
			"airgem": 20
		},
		"mod": {
			"speed": 2,
			"dist": 525
		},
		"group": "mount"
	},
	{
		"id": "firechariot",
		"name": "chariot of fire",
		"desc": "",
		"require": "g.firelore>=16||g.lightlore>=16",
		"slot": "mount",
		"buy": {
			"research": 10000,
			"arcana": 15,
			"lightgem": 15,
			"firegem": 15
		},
		"mod": {
			"dist": 550,
			"fire.rate": 0.2,
			"fire.max": 1
		},
		"flavor": "Bring me my chariot of fire.",
		"group": "mount"
	},
	{
		"id": "pegasusmount",
		"name": "pegasus",
		"desc": "A winged horse.",
		"require": "g.lightlore>=10&&g.stables>0",
		"need": "stables",
		"slot": "mount",
		"tags": "steed",
		"buy": {
			"gold": 2000,
			"gems": 5
		},
		"mod": {
			"dist": 320,
			"light.rate": 0.1,
			"light.max": 1
		},
		"group": "mount"
	},
	{
		"id": "gryffonmount",
		"name": "gryffon",
		"desc": "As fleet as it is fearsome.",
		"require": "g.magicbeasts>=7&&g.stables>0",
		"need": "stables",
		"slot": "mount",
		"tags": "steed",
		"buy": {
			"gold": 2000,
			"gems": 5
		},
		"mod": {
			"dist": 325,
			"gems.max": 5,
			"prismaticgems.max": 3,
			"gold.max": 800
		},
		"group": "mount"
	},
	{
		"id": "magichorseshoe",
		"name": "magic Horseshoes",
		"require": "g.enchanting>=5&&g.crafting>=10",
		"max": 1,
		"need": "steed",
		"cost": {
			"gems": 10,
			"research": 500
		},
		"mod": {
			"dist": "20%"
		},
		"group": "exploration"
	},
	{
		"id": "tent",
		"name": "travel tent",
		"require": "g.naturelore>=3",
		"max": 1,
		"desc": "Allows you to stay in the wilds longer.",
		"cost": {
			"gold": 100,
			"research": 50
		},
		"mod": {
			"naturelore.max": 1,
			"dist": 5
		},
		"group": "exploration"
	},
	{
		"id": "up_map1",
		"name": "travel map",
		"require": "g.crafting>=6&&g.astronomy>=4",
		"max": 1,
		"desc": "A map of the surrounding localities.",
		"cost": {
			"research": 700
		},
		"mod": {
			"dist": "5%"
		},
		"group": "exploration"
	},
	{
		"id": "up_pack",
		"name": "travel pack",
		"require": "tier0",
		"max": 1,
		"desc": "A pack to facilitate longer travels.",
		"cost": {
			"gold": 800
		},
		"mod": {
			"dist": "7%"
		},
		"flavor": "Someone needs to have a talk with the Sack Maker's guild.",
		"group": "exploration"
	},
	{
		"id": "up_ten_map",
		"name": "tenwick's travel map",
		"require": "g.history>=4||g.crafting>=10",
		"max": 1,
		"desc": "Though neither a mage, nor a warrior, few braved the wilds of inner-Dhrune so completely as Tenwick.",
		"cost": {
			"gold": 800,
			"research": 900
		},
		"mod": {
			"dist": "25%"
		},
		"group": "exploration"
	},
	{
		"id": "magictent",
		"name": "casgair's conjured canopy",
		"desc": "Conjure a large tent for long journeys.",
		"require": "g.lore>=15&&g.conjuration>=5&&g.research.max>=800",
		"max": 1,
		"cost": {
			"research": 1000,
			"arcana": 1,
			"gems": 10
		},
		"mod": {
			"dist": "25%"
		},
		"group": "exploration"
	},
	{
		"id": "waxcandle",
		"name": "wax candle",
		"tags": "candle",
		"desc": "A tiny glowing candle.",
		"flavor": "You no take candle!",
		"require": "mana",
		"max": 1,
		"cost": {
			"gold": 10
		},
		"mod": {
			"mana.rate": 0.02
		},
		"group": "magic"
	},
	{
		"id": "mortar",
		"name": "mortar and Pestle",
		"desc": "Useful for grinding herbs & fine ingredients.",
		"require": "g.herbalism>=2&&g.herbs>=5",
		"max": 1,
		"cost": {
			"gold": 40,
			"research": 10
		},
		"mod": {
			"research.max": 5,
			"herbalism.max": 1,
			"herbalism.rate": 0.1
		},
		"group": "knowledge"
	},
	{
		"id": "pouch",
		"desc": "Keep your money safe.",
		"require": "g.gold>=5",
		"max": 3,
		"cost": {
			"gold": 5
		},
		"flavor": "Seems a tad pricey for a bag.",
		"mod": {
			"gold.max": 10
		},
		"group": "storage"
	},
	{
		"id": "gembag",
		"name": "velvet bag",
		"desc": "Small bag keeps gems safe without scratching.",
		"require": "g.gems>=5",
		"max": 2,
		"cost": {
			"gold": 300
		},
		"flavor": "Who prices these bags?!",
		"mod": {
			"magicgems.max": 1,
			"bloodgem.max": 1,
			"gems.max": 5
		},
		"group": "storage"
	},
	{
		"id": "gembox",
		"name": "gem box",
		"desc": "Finely crafted box for storing magic gems.",
		"require": ["tier0", "magicgems"],
		"max": 5,
		"cost": {
			"gems": 15,
			"gold": 800
		},
		"mod": {
			"magicgems.max": 2,
			"gems.max": 3
		},
		"group": "storage"
	},
	{
		"id": "herbbag",
		"name": "herb pouch",
		"desc": "Bag for holding herbs.",
		"require": "g.herbalism>=4",
		"max": 3,
		"cost": {
			"gold": 100,
			"research": 50
		},
		"mod": {
			"herbs.max": 10
		},
		"flavor": "It holds herbs.",
		"group": "storage"
	},
	{
		"id": "runebag",
		"name": "rune pouch",
		"desc": "Pouch for holding runes.",
		"require": "g.runelore>=2",
		"max": 5,
		"cost": {
			"gems": 50,
			"research": 1000
		},
		"mod": {
			"runestones.max": 5
		},
		"group": "storage"
	},
	{
		"id": "orb",
		"name": "arcane orb",
		"desc": "Stores magical energy.",
		"require": "g.mana.max>=10&&g.crafting>=7",
		"max": 2,
		"cost": {
			"gems": 5,
			"mana": 10,
			"research": 200
		},
		"mod": {
			"mana.rate": 0.03
		},
		"group": "magic"
	},
	{
		"id": "unseenscribe",
		"name": "unseen scribe",
		"desc": "The quill lifts off the desk and begins to write...",
		"require": "g.spiritlore>=5&&g.airlore>0",
		"need": ["writingdesk"],
		"needtext": "Writing Desk",
		"max": 3,
		"cost": {
			"arcana": 1,
			"spirit": 1,
			"air": 1,
			"research": 100
		},
		"flavor": "Magic will do our magic for us now.",
		"mod": {
			"scrolls.rate": 0.05
		},
		"group": "materials"
	},
	{
		"id": "ghostcompiler",
		"name": "ghost compiler",
		"desc": "An invisible spirit binds your scrolls into codices.",
		"require": "g.tier1>0&&g.unseenscribe>0",
		"max": 3,
		"cost": {
			"arcana": 1,
			"spirit": 5,
			"research": 200
		},
		"flavor": "Spirits never sleep.",
		"convert": {
			"input": {
				"scrolls": 0.01
			},
			"output": {
				"effect": {
					"codices": 0.01
				}
			}
		},
		"group": "materials"
	},
	{
		"id": "ghostchains",
		"name": "ghost chains",
		"require": "g.tier2>0&&g.spirit>=8&&g.ghostcompiler>=2",
		"desc": "Hold more spirits in your sway.",
		"max": 3,
		"cost": {
			"research": 200,
			"tomes": 1,
			"spirit": 7,
			"air": 5
		},
		"mod": {
			"ghostcompiler.max": 3,
			"unseenscribe.max": 3
		},
		"group": "crafting"
	},
	{
		"id": "woodpipe",
		"name": "wood pipe",
		"desc": "Finely carved wooden pipe. Ruminate while peering into the sunset or a fire.",
		"require": "g.scrying>=5&&g.crafting>=7",
		"max": 1,
		"cost": {
			"gems": 5
		},
		"mod": {
			"scrying.max": 1,
			"scrying.rate": 0.1,
			"divination.rate": 0.1
		},
		"group": "knowledge"
	},
	{
		"id": "longpipe",
		"name": "long-stem pipe",
		"desc": "",
		"require": "g.scrying>=7&&g.crafting>=8",
		"max": 1,
		"cost": {
			"spiritgem": 5,
			"research": 500,
			"spirit": 5
		},
		"mod": {
			"scrying.max": 1,
			"scrying.rate": 0.1,
			"divination.rate": 0.1
		},
		"group": "knowledge"
	},
	{
		"id": "pendulum",
		"tags": "timesource",
		"require": "g.lore>=20",
		"max": 1,
		"cost": {
			"managem": 1,
			"research": 5000
		},
		"mod": {
			"research.max": 5,
			"tempus.rate": 0.001
		},
		"group": "magic"
	},
	{
		"id": "metronome",
		"desc": "Focus of temporal synchronicity.",
		"tags": "timesource",
		"require": "g.crafting>=10&&g.chronomancylearn4>0",
		"max": 1,
		"cost": {
			"gold": 50,
			"research": 300,
			"gems": 10
		},
		"mod": {
			"chronomancy.max": 1,
			"tempus.rate": 0.001
		},
		"group": "magic"
	},
	{
		"id": "celestialglobe",
		"name": "celestial globe",
		"desc": "A globe of the stars and constellations.",
		"require": "g.astronomy>=9&&g.crafting>=9",
		"max": 1,
		"cost": {
			"arcana": 1,
			"research": 200,
			"gold": 200
		},
		"mod": {
			"research.max": 10,
			"divination.max": 1,
			"divination.rate": "20%",
			"astronomy.max": 3,
			"astronomy.rate": "10%"
		},
		"group": "knowledge"
	},
	{
		"id": "armillarysphere",
		"name": "armillary sphere",
		"desc": "A small mechanical model of the known worlds.",
		"require": "g.astronomy>=7&&g.crafting>=7",
		"max": 1,
		"cost": {
			"arcana": 1,
			"research": 100,
			"gold": 200
		},
		"mod": {
			"research.max": 10,
			"planeslore.max": 2,
			"planeslore.rate": 0.3,
			"astronomy.max": 3,
			"astronomy.rate": 0.3
		},
		"group": "knowledge"
	},
	{
		"id": "loreoverture",
		"name": "loremaster's beginning",
		"desc": "A comprehensive catalog of Dhrune's greatest history and achievements. A target for you to surpass.",
		"require": "g.tier4>0&&g.t_knowledgeclass>=2",
		"max": 1,
		"cost": {
			"gold": 5000,
			"research": 7500,
			"scrolls": 100,
			"codices": 30,
			"managem": 60
		},
		"result": {
			"fame": 5
		},
		"mod": {
			"history.max": 2,
			"research.max": "30%"
		}
	},
	{
		"id": "lorecoda",
		"name": "loremaster's triumph",
		"desc": "A comprehensive work on Dhrune's history and achievements, large enough to fill a library.",
		"require": "g.tier5>0&&g.t_knowledgeclass>=3",
		"max": 1,
		"cost": {
			"gold": 15000,
			"research": 50000,
			"codices": 300,
			"tomes": 150,
			"runestones": 60
		},
		"result": {
			"sp": 50,
			"fame": 10
		},
		"mod": {
			"codices.rate": 0.02,
			"tomes.rate": 0.01,
			"runestones.rate": 0.005,
			"codices.mod.research.rate": 0.03,
			"tomes.mod.research.max": 1,
			"research.max": "20%",
			"potions.max": 2,
			"lore.max": 5,
			"lore.rate": "200%",
			"history.max": 5,
			"history.rate": "200%",
			"mana.max": 15,
			"mana.rate": 1
		},
		"group": "knowledge"
	},
	{
		"id": "fourleaf",
		"name": "four leaf clover",
		"desc": "A small but helpful charm.",
		"require": "g.trickery>=3&&g.herbs>=3",
		"max": 1,
		"cost": {
			"herbs": 4,
			"nature": 4,
			"research": 100,
			"arcana": 1
		},
		"mod": {
			"dodge": 1,
			"luck": 1
		},
		"group": "body"
	},
	{
		"id": "restless",
		"name": "Restless Nights",
		"desc": "Continue working even while idle.",
		"flavor": "A good apprentice knows there are 30 hours to the day.",
		"require": "g.lore>=3",
		"max": 1,
		"cost": {
			"research": 50
		},
		"mod": {
			"gold.rate": 0.1,
			"skill.rate": "5%"
		},
		"group": "affluence"
	},
	{
		"id": "arcanaaction",
		"name": "Aided Thoughts",
		"desc": "As you support your thinking with Arcana, sleep becomes less of a necessity. You can use your time in a more efficient manner now",
		"extdesc": "Provides an additional action slot",
		"flavor": "Arcana does nothing for the strain on your muscles, making this method useless for the average worker",
		"require": "g.neophyte>0&&g.research.max>=90",
		"max": 1,
		"cost": {
			"research": 150,
			"arcana": 2
		},
		"mod": {
			"runner.max": 1
		},
		"group": "actions"
	},
	{
		"id": "speakbirds",
		"name": "speak to Birds",
		"desc": "Learn the secret languages of birds.",
		"require": "g.falconer>0||g.animals>=8",
		"max": 1,
		"need": "birdcage",
		"cost": {
			"research": 250,
			"nature": 1
		},
		"mod": {
			"research.max": 5,
			"naturelore.max": 2,
			"naturelore.rate": 0.2,
			"languages.max": 1,
			"languages.rate": 0.1,
			"animals.rate": 0.1
		},
		"group": "knowledge"
	},
	{
		"id": "dragontongue",
		"name": "dragon Tongue",
		"desc": "Learn the ancient language of dragons.",
		"require": "g.languages>=13&&g.magicbeasts>=5",
		"max": 1,
		"cost": {
			"research": 1000
		},
		"mod": {
			"languages.max": 2,
			"languages.rate": 0.2,
			"magicbeasts.max": 2,
			"magicbeasts.rate": 0.8
		},
		"group": "knowledge"
	},
	{
		"id": "purse",
		"desc": "Common way to carry coins.",
		"require": "g.gold>=20",
		"max": 2,
		"cost": {
			"gold": 15
		},
		"mod": {
			"gold.max": 20
		},
		"group": "storage"
	},
	{
		"id": "hiddenpockets",
		"require": "(g.magician>0||g.t_chaosclass>0)&&g.trickery>0",
		"max": 1,
		"cost": {
			"research": 300,
			"arcana": 1
		},
		"flavor": "Nothing up my sleeves...",
		"mod": {
			"purse.max": 3,
			"pouch.max": 5,
			"inv.max": 1
		},
		"group": "storage"
	},
	{
		"id": "carddeck",
		"name": "card deck",
		"desc": "A simple deck of cards.",
		"require": "g.prestidigitation>0||g.trickery>0",
		"max": 1,
		"tags": "tricksource",
		"cost": {
			"gold": 50
		},
		"mod": {
			"luck": 0.5
		},
		"group": "body"
	},
	{
		"id": "threesidecoin",
		"name": "three-sided coin",
		"desc": "You create your own luck.",
		"require": "g.trickery>=4",
		"max": 1,
		"tags": "tricksource",
		"cost": {
			"research": 200,
			"gold": 300
		},
		"mod": {
			"trickery.max": 1,
			"trickery.rate": 0.1
		},
		"group": "knowledge"
	},
	{
		"id": "bloodbag",
		"name": "membranous pouch",
		"desc": "A sack woven from living tissue helps preserve the gems.",
		"require": "g.bloodlore>=5&&g.weaving>=5",
		"tags": "t_craftedbag",
		"max": 1,
		"cost": {
			"hp": 100,
			"bloodgem": 5,
			"bodies": 1
		},
		"mod": {
			"bloodgem.max": 5
		},
		"group": "storage"
	},
	{
		"id": "bagofholding",
		"name": "bag of holding",
		"require": "g.lore>=11&&g.conjuration>=5&&g.crafting>=15",
		"desc": "You'll make your own bags, thank you.",
		"tags": "t_craftedbag",
		"max": 1,
		"cost": {
			"gold": 1000,
			"research": 2000,
			"arcana": 3
		},
		"mod": {
			"inv.max": 4,
			"gold.max": 100,
			"gems.max": 20,
			"prismaticgems.max": 5
		},
		"flavor": "The research costs a little more than you expected...",
		"group": "storage"
	},
	{
		"id": "deeppockets",
		"name": "deep Pockets",
		"require": "g.hiddenpockets>0&&g.trickster>0&&g.conjuration>=3",
		"max": 1,
		"desc": "Cheaper than buying pouches.",
		"cost": {
			"research": 300,
			"arcana": 1
		},
		"mod": {
			"pouch.mod.gold.max": 5,
			"purse.mod.gold.max": 10,
			"inv.max": 1
		},
		"flavor": "There's another coin down here somewhere...",
		"group": "storage"
	},
	{
		"id": "retreat",
		"alias": "expedientretreat",
		"name": "two-way portal",
		"desc": "Return to dungeons below your level after making a hasty exit.",
		"require": "g.t_chaosclass>0||g.tier2>0",
		"max": 1,
		"cost": {
			"arcana": 10,
			"research": 2000
		},
		"mod": {
			"player.retreat": 1
		},
		"group": "special"
	},
	{
		"id": "gemcraft",
		"name": "sustained imbuement",
		"require": "g.tier4>0&&g.crafting>=16",
		"max": 1,
		"cost": {
			"research": 2500,
			"tomes": 5,
			"arcana": 20
		},
		"desc": "Unlocks an ability to imbue gems as a continuous action. Activate via furniture.",
		"group": "special"
	},
	{
		"id": "bookcraft",
		"name": "sustained writing",
		"require": "g.tier1>0&&g.crafting>=8",
		"max": 1,
		"cost": {
			"research": 200,
			"scrolls": 10,
			"arcana": 5
		},
		"desc": "Unlocks abilities to scribe scrolls and bind codices as continuous actions. Activate via furniture.",
		"group": "special"
	},
	{
		"id": "advgems",
		"name": "advanced imbuement chambers",
		"require": "g.furn_gemcraft>0&&g.crafting>=18",
		"max": 1,
		"cost": {
			"research": 5000,
			"tomes": 10,
			"arcana": 30
		},
		"desc": "Improve the speed of your gem enchanting.",
		"mod": {
			"furn_gemcraft.mod.gemimbue.length": "-3"
		},
		"group": "crafting"
	},
	{
		"id": "advbooks",
		"name": "advanced writing chambers",
		"require": "(g.furn_scrollcraft+g.furn_codexcraft)>0&&g.crafting>=12",
		"max": 1,
		"cost": {
			"research": 300,
			"scrolls": 30,
			"arcana": 10
		},
		"desc": "Improve the speed of your book writing.",
		"mod": {
			"furn_scrollcraft.mod.scribescroll.length": "-1",
			"furn_codexcraft.mod.bindcodex.length": "-3"
		},
		"group": "crafting"
	},
	{
		"id": "earthaffinity",
		"name": "earth adaptation",
		"desc": "Resistance to earth-based attacks and afflictions.",
		"require": "g.earth>=10&&g.tier1>0",
		"max": 1,
		"cost": {
			"research": 250,
			"earthgem": 10,
			"codices": 1
		},
		"mod": {
			"player.resist.earth": 5
		},
		"group": "body"
	},
	{
		"id": "poisonaffinity",
		"name": "poison adaptation",
		"desc": "A natural resistance to most poisons.",
		"require": "g.nature>=10&&g.druid>0",
		"max": 1,
		"cost": {
			"research": 250,
			"naturegem": 10,
			"codices": 1
		},
		"mod": {
			"player.resist.nature": 25
		},
		"group": "body"
	},
	{
		"id": "airaffinity",
		"name": "air adaptation",
		"desc": "Resistance to air-based assaults and enfeeblements.",
		"require": "g.air>=10&&g.tier1>0",
		"max": 1,
		"cost": {
			"research": 250,
			"airgem": 10,
			"codices": 1
		},
		"mod": {
			"player.resist.air": 5
		},
		"group": "body"
	},
	{
		"id": "wateraffinity",
		"name": "water adaptation",
		"desc": "Resistance to water-based barrages and detriments.",
		"require": "g.water>=10&&g.tier1>0",
		"max": 1,
		"cost": {
			"research": 250,
			"watergem": 10,
			"codices": 1
		},
		"mod": {
			"player.resist.water": 5
		},
		"group": "body"
	},
	{
		"id": "fireaffinity",
		"name": "fire adaptation",
		"desc": "Resistance to fire-based blasts and immolations.",
		"require": "g.fire>=10&&g.tier1>0",
		"max": 1,
		"cost": {
			"research": 250,
			"firegem": 10,
			"codices": 1
		},
		"mod": {
			"player.resist.fire": 5
		},
		"group": "body"
	},
	{
		"id": "natureaffinity",
		"name": "nature adaptation",
		"desc": "Resistance to nature-based thorns and toxins.",
		"require": "g.nature>=10&&g.tier1>0",
		"cost": {
			"research": 250,
			"naturegem": 10,
			"codices": 1
		},
		"mod": {
			"player.resist.nature": 5
		},
		"group": "body"
	},
	{
		"id": "spiritaffinity",
		"name": "spirit adaptation",
		"desc": "Resistance to spirit-based hexes and haunts.",
		"require": "g.spirit>=10&&g.tier1>0",
		"cost": {
			"research": 250,
			"spiritgem": 10,
			"codices": 1
		},
		"mod": {
			"player.resist.spirit": 5
		},
		"group": "body"
	},
	{
		"id": "lightaffinity",
		"name": "light adaptation",
		"desc": "Resistance to light-based rays and dazzles.",
		"require": "g.light>=10&&g.tier1>0",
		"cost": {
			"research": 250,
			"lightgem": 10,
			"codices": 1
		},
		"mod": {
			"player.resist.light": 5
		},
		"group": "body"
	},
	{
		"id": "shadowaffinity",
		"name": "shadow adaptation",
		"desc": "Resistance to shadow-based curses and ruins.",
		"require": "g.shadow>=10&&g.tier1>0",
		"cost": {
			"research": 250,
			"shadowgem": 10,
			"codices": 1
		},
		"mod": {
			"player.resist.shadow": 5
		},
		"group": "body"
	},
	{
		"id": "firesign",
		"name": "fire sign",
		"tags": "t_birthsign",
		"require": "g.fireaffinity>0&&g.fire>=15&&g.tier2>0",
		"max": 1,
		"warn": true,
		"lock": "t_birthsign",
		"desc": "Born under the celestial sign of fire.",
		"cost": {
			"research": 1000,
			"firegem": 15,
			"tomes": 1
		},
		"mod": {
			"player.resist.fire": 15,
			"astronomy.max": 2
		},
		"group": "body"
	},
	{
		"id": "watersign",
		"name": "water sign",
		"tags": "t_birthsign",
		"require": "g.wateraffinity>0&&g.water>=15&&g.tier2>0",
		"lock": "t_birthsign",
		"warn": true,
		"desc": "Born under the celestial sign of water.",
		"cost": {
			"research": 1000,
			"watergem": 15,
			"tomes": 1
		},
		"mod": {
			"player.resist.water": 15,
			"astronomy.max": 2
		},
		"group": "body"
	},
	{
		"id": "earthsign",
		"name": "earth sign",
		"tags": "t_birthsign",
		"require": "g.earthaffinity>0&&g.earth>=15&&g.tier2>0",
		"lock": "t_birthsign",
		"warn": true,
		"desc": "Born under the celestial sign of earth.",
		"cost": {
			"research": 1000,
			"earthgem": 15,
			"tomes": 5
		},
		"mod": {
			"player.resist.earth": 15,
			"astronomy.max": 2
		},
		"group": "body"
	},
	{
		"id": "airsign",
		"name": "wind sign",
		"tags": "t_birthsign",
		"warn": true,
		"require": "g.airaffinity>0&&g.air>=15&&g.tier2>0",
		"lock": "t_birthsign",
		"desc": "Born under the celestial sign of wind.",
		"cost": {
			"research": 1000,
			"airgem": 15,
			"tomes": 1
		},
		"mod": {
			"player.resist.air": 15,
			"astronomy.max": 2
		},
		"group": "body"
	},
	{
		"id": "naturesign",
		"name": "nature sign",
		"tags": "t_birthsign",
		"warn": true,
		"require": "g.natureaffinity>0&&g.nature>=15&&g.tier2>0",
		"lock": "t_birthsign",
		"desc": "Born under the celestial sign of nature.",
		"cost": {
			"research": 1000,
			"naturegem": 15,
			"tomes": 1
		},
		"mod": {
			"player.resist.nature": 15,
			"astronomy.max": 2
		},
		"group": "body"
	},
	{
		"id": "spiritsign",
		"name": "spirit sign",
		"tags": "t_birthsign",
		"warn": true,
		"require": "g.spiritaffinity>0&&g.spirit>=15&&g.tier2>0",
		"lock": "t_birthsign",
		"desc": "Born under the celestial sign of spirit.",
		"cost": {
			"research": 1000,
			"spiritgem": 15,
			"tomes": 1
		},
		"mod": {
			"player.resist.spirit": 15,
			"astronomy.max": 2
		},
		"group": "body"
	},
	{
		"id": "lightsign",
		"name": "light sign",
		"tags": "t_birthsign",
		"warn": true,
		"require": "g.lightaffinity>0&&g.light>=15&&g.tier2>0",
		"lock": "t_birthsign",
		"desc": "Born under the celestial sign of light.",
		"cost": {
			"research": 1000,
			"lightgem": 15,
			"tomes": 1
		},
		"mod": {
			"player.resist.light": 15,
			"astronomy.max": 2
		},
		"group": "body"
	},
	{
		"id": "shadowsign",
		"name": "dark sign",
		"tags": "t_birthsign",
		"warn": true,
		"require": "g.shadowaffinity>0&&g.shadow>=15&&g.tier2>0",
		"lock": "t_birthsign",
		"desc": "Born under the celestial sign of darkness.",
		"cost": {
			"research": 1000,
			"shadowgem": 15,
			"tomes": 1
		},
		"mod": {
			"player.resist.shadow": 15,
			"astronomy.max": 2
		},
		"group": "body"
	},
	{
		"id": "poisonveins",
		"name": "poison veins",
		"desc": "You do not fear poison.",
		"require": "g.poisonaffinity>0&&g.nature>=15",
		"max": 1,
		"cost": {
			"research": 1000,
			"naturegem": 15,
			"tomes": 1
		},
		"mod": {
			"player.resist.nature": 13
		},
		"group": "body"
	},
	{
		"id": "coinmagic",
		"name": "coin tricks",
		"desc": "Manipulate coins to produce more coins.",
		"require": "hiddenpockets",
		"max": 1,
		"cost": {
			"research": 400
		},
		"flavor": "Didn't even palm it.",
		"mod": {
			"gold.rate": 0.15
		},
		"group": "affluence"
	},
	{
		"id": "guidingstar",
		"name": "guiding star",
		"desc": "A light in the heavens guides your way.",
		"flavor": "Mornië Alantië.",
		"require": "g.astronomy>=15",
		"max": 1,
		"cost": {
			"research": 5000,
			"arcana": 15
		},
		"mod": {
			"player.tohit": 2,
			"scrying.max": 2,
			"scrying.rate": 0.2
		},
		"group": "knowledge"
	},
	{
		"id": "wishingwells",
		"name": "wishing wells",
		"require": "g.divination>=4&&g.fountain>0",
		"max": 1,
		"cost": {
			"gold": 500,
			"research": 500,
			"water": 10
		},
		"mod": {
			"fountain.mod.gold.max": 50,
			"fountain.mod.gold.rate": 0.1
		},
		"group": "furniture"
	},
	{
		"id": "satchel",
		"desc": "Carry more scrolls.",
		"require": "g.scrolls>=10",
		"max": 1,
		"scale": 2,
		"cost": {
			"gold": 50
		},
		"mod": {
			"scrolls.max": 15
		},
		"group": "storage"
	},
	{
		"id": "abstraction",
		"desc": "A wizard's power is the sum of their knowledge.",
		"require": "g.lore>=14",
		"max": 1,
		"cost": {
			"research": 100,
			"codices": 5,
			"bloodgem": 10,
			"arcana": 5,
			"sp": 1
		},
		"convert": {
			"input": {
				"research": 0.2
			},
			"output": {
				"effect": {
					"hp": 0.5
				}
			}
		},
		"group": "rest"
	},
	{
		"id": "alkahest",
		"name": "alkahest",
		"desc": "Discover a Universal Solvent.",
		"require": "g.alchemy>=15&&g.crafting>=10",
		"max": 1,
		"cost": {
			"research": 200,
			"gold": 300,
			"codices": 1,
			"gems": 15
		},
		"mod": {
			"alchemy.max": 2,
			"alchemy.rate": 0.2
		},
		"flavor": "Anything can be a liquid.",
		"group": "knowledge"
	},
	{
		"id": "prism",
		"desc": "A small crystal for performing optical experiments.",
		"require": "neophyte",
		"max": 1,
		"tags": "lightsource",
		"cost": {
			"gold": 50,
			"research": 50
		},
		"mod": {
			"research.max": 10,
			"light.rate": 0.01
		},
		"group": "magic"
	},
	{
		"id": "windchime",
		"name": "windchime",
		"tags": "airsource,spiritsource",
		"desc": "Focus of air magic.",
		"require": "g.space.max>=11",
		"max": 1,
		"cost": {
			"gems": 10,
			"research": 100
		},
		"mod": {
			"air.rate": 0.01,
			"air.max": 1,
			"spirit.max": 1,
			"spirit.rate": 0.005
		},
		"group": "magic"
	},
	{
		"id": "dreamcatcher",
		"name": "dream catcher",
		"desc": "You may not like what you catch.",
		"tags": "spiritsource",
		"require": "g.crafting>=5",
		"max": 1,
		"cost": {
			"gold": 50,
			"research": 50,
			"mana": 2
		},
		"mod": {
			"spiritlore.max": 1,
			"spirit.rate": 0.01
		},
		"group": "knowledge"
	},
	{
		"id": "heartcandle",
		"name": "heart Candle",
		"tags": "candle",
		"desc": "A warm glowing candle.",
		"max": 2,
		"flavor": "Spare a little candle, save some light for me.",
		"require": "g.mana.max>=15",
		"cost": {
			"gold": 35
		},
		"mod": {
			"fire.max": 0.04,
			"fire.rate": 0.01
		},
		"group": "magic"
	},
	{
		"id": "holycandle",
		"name": "holy candle",
		"tags": "candle",
		"desc": "White glowing candle.",
		"max": 2,
		"require": "g.light.max>=10",
		"flavor": "It is better to light one candle than to curse the darkness.",
		"cost": {
			"gold": 75
		},
		"mod": {
			"light.max": 0.2,
			"light.rate": 0.01
		},
		"group": "magic"
	},
	{
		"id": "sombercandle",
		"name": "somber candle",
		"tags": "candle",
		"desc": "Its faint light stirs the restless spirits.",
		"max": 5,
		"require": "g.spiritlore.max>=7",
		"cost": {
			"gold": 75
		},
		"mod": {
			"spirit.max": 0.2,
			"spirit.rate": 0.01
		},
		"group": "magic"
	},
	{
		"id": "blackcandle",
		"name": "unholy candle",
		"tags": "candle",
		"desc": "What flames cast shadows?",
		"max": 2,
		"require": "g.shadow.max>=10",
		"flavor": "Darkness, Darkness.",
		"cost": {
			"gold": 75
		},
		"mod": {
			"shadow.max": 0.2,
			"shadow.rate": 0.01
		},
		"group": "magic"
	},
	{
		"id": "ball",
		"name": "crystal ball",
		"tags": "spiritsource",
		"desc": "A crystal sphere revealing distant lands.",
		"require": "g.tier0>0&&g.gems>0",
		"max": 1,
		"cost": {
			"gems": 3,
			"research": 200
		},
		"mod": {
			"arcana.rate": 0.0001,
			"spirit.max": 1,
			"readpalms.result.gold": 1,
			"spirit.rate": 0.01
		},
		"group": "magic"
	},
	{
		"id": "breviary",
		"require": "g.evt_helper>0",
		"need": "pedestal",
		"max": 1,
		"desc": "A weighty tome of knowledge.",
		"cost": {
			"gold": 100,
			"codices": 1
		},
		"mod": {
			"lore.max": 1,
			"lore.rate": 0.1,
			"study.effect.research": 0.01,
			"study.effect.arcana": 0.001
		},
		"group": "knowledge"
	},
	{
		"id": "thirdeye",
		"name": "third eye",
		"tags": "spiritsource",
		"require": "g.scrying>=5&&g.spirit.max>=7",
		"max": 1,
		"desc": "See without seeing.",
		"cost": {
			"spirit": 5,
			"arcana": 1,
			"research": 200,
			"gems": 1
		},
		"mod": {
			"spirit.max": 1,
			"spirit.rate": 0.01,
			"divination.max": 1,
			"scrying.max": 1
		},
		"group": "knowledge"
	},
	{
		"id": "chakravarti",
		"desc": "Wheels upon wheels; you turn them all.",
		"require": "g.t_swordclass>0&&(g.t_shadowclass+g.t_manaclass)>0",
		"max": 1,
		"cost": {
			"research": 800,
			"hp": 100,
			"tomes": 5
		},
		"mod": {
			"anatomy.max": 2,
			"anatomy.rate": 0.4,
			"arcanebody.max": 3,
			"minions.max": 2,
			"allies.max": 1
		},
		"result": {
			"title": "Chakravarti"
		},
		"group": "knowledge"
	},
	{
		"id": "specialization",
		"desc": "Specialize in a school of magic.",
		"require": "g.lore>999",
		"unused": true,
		"max": 1,
		"cost": {
			"tomes": 1,
			"arcana": 1,
			"gold": 300
		},
		"choice": {
			"target": "t_school",
			"mod": {
				"max": 2,
				"rate": "2%"
			}
		}
	},
	{
		"id": "crystalmind",
		"name": "crystal mind",
		"max": 3,
		"desc": "Expend your research to enhance your mental fortitude.",
		"require": "tier0",
		"cost": {
			"research": "5*Math.pow(2,g.crystalmind)",
			"mana": "3+g.crystalmind"
		},
		"mod": {
			"divination.max": 1,
			"mana.max": 1,
			"lore.max": 1
		},
		"group": "knowledge"
	},
	{
		"id": "occultendure",
		"name": "occult endurance",
		"max": 3,
		"desc": "Expend your research to discover new sources of stamina.",
		"require": "tier1",
		"cost": {
			"research": "5*Math.pow(2,g.occultendure)",
			"mana": "3+g.occultendure"
		},
		"mod": {
			"stamina.max": 1,
			"vigor.max": 1,
			"stamina.rate": "0.12+1%",
			"vigor.rate": "0.012+1%"
		},
		"group": "body"
	},
	{
		"id": "arcanebody",
		"name": "arcane body",
		"max": 1,
		"desc": "Expend your research to enhance your durability.",
		"require": "g.lore>=7&&g.tier0>0",
		"cost": {
			"research": "5*Math.pow(2,g.arcanebody)",
			"mana": "3+g.arcanebody"
		},
		"mod": {
			"hp.max": 5
		},
		"group": "body"
	},
	{
		"id": "arcanebody2",
		"name": "greater arcane body",
		"desc": "Magic over matter.",
		"require": "g.tier4>0",
		"max": 3,
		"cost": {
			"research": "500+10*Math.pow(2,g.arcanebody2)",
			"arcana": "5+g.arcanebody2"
		},
		"mod": {
			"hp.rate": 0.25
		},
		"flavor": "Magic over matter.",
		"group": "body"
	},
	{
		"id": "innerlight",
		"name": "inner light",
		"require": "g.t_divinationclass>0&&g.divination>=8",
		"max": 1,
		"desc": "A light in the darkness.",
		"cost": {
			"research": 500,
			"lightgem": 10,
			"arcana": 2
		},
		"mod": {
			"composure.max": 1,
			"lightlore.rate": "10%",
			"hp.rate": 0.3,
			"player.resist.light": 5
		},
		"group": "body"
	},
	{
		"id": "forewarned",
		"require": "g.t_divinationclass>0&&g.divination>=12",
		"max": 1,
		"desc": "All these things have I expected, and more...",
		"cost": {
			"lightgem": 20,
			"research": 800,
			"arcana": 3
		},
		"mod": {
			"composure.max": 1,
			"player.defense": 2,
			"dodge": 2
		},
		"group": "knowledge"
	},
	{
		"id": "truesight",
		"require": "g.t_divinationclass>0&&g.tier4>0",
		"max": 1,
		"desc": "Immunity to mortal deceptions.",
		"cost": {
			"tomes": 5,
			"research": 1000,
			"arcana": 4
		},
		"warn": true,
		"disable": "trickery",
		"mod": {
			"composure.max": 1,
			"lightlore.max": 1,
			"lightlore.rate": "10%",
			"scrying.max": 1,
			"divination.max": 1,
			"player.tohit": 4,
			"player.defense": 2,
			"dodge": 2
		},
		"group": "knowledge"
	},
	{
		"id": "fatalist",
		"require": "g.t_divinationclass>0&&g.tier5>0&&g.truesight>0",
		"max": 1,
		"desc": "The guiding hand of fate.",
		"cost": {
			"tomes": 10,
			"research": 2000,
			"arcana": 5
		},
		"mod": {
			"lightlore.max": 2,
			"lightlore.rate": "20%",
			"divination.max": 1,
			"scrying.max": 1,
			"player.tohit": 3,
			"player.defense": 3,
			"dodge": 3
		},
		"flavor": "Gods do not play dice...",
		"group": "knowledge"
	},
	{
		"id": "celerity",
		"require": "g.tier1>0&&g.arcanebody>0",
		"max": 3,
		"desc": "Ancient spellcasters often move with preternatural speed.",
		"warn": true,
		"cost": {
			"sp": 1,
			"research": 500
		},
		"mod": {
			"speed": 1.5
		},
		"group": "body"
	},
	{
		"id": "infusedbody",
		"name": "infused body",
		"desc": "Increases the effectiveness of arcane body.",
		"max": 1,
		"require": "tier2",
		"cost": {
			"codices": 10,
			"tomes": 1,
			"bloodgem": 5
		},
		"mod": {
			"arcanebody.mod.hp.max": 5,
			"arcanebody.mod.bloodgem.max": 10
		},
		"group": "body"
	},
	{
		"id": "chirography",
		"desc": "Improve the efficacy of your scrolls by meticulous attention to penmanship.",
		"require": "g.lore>=10&&g.tier1>0",
		"max": 1,
		"cost": {
			"research": 700,
			"mana": 10
		},
		"mod": {
			"scrolls.mod.research.max": 0.5
		},
		"group": "research"
	},
	{
		"id": "orthography",
		"desc": "Make your spelling match your spelling.",
		"require": "g.lore>=12&&g.tier2>0&&g.chirography>0",
		"max": 1,
		"cost": {
			"research": 700,
			"mana": 10
		},
		"mod": {
			"scrolls.mod.research.max": 0.5,
			"codices.mod.research.max": 1.5
		},
		"group": "research"
	},
	{
		"id": "symboliccompression",
		"name": "symbolic compression",
		"desc": "Devise a new system of writing to make characters more legible when densely packed.",
		"require": "g.lore>=14&&g.tier3>0&&g.languages>=3&&g.orthography>0",
		"max": 1,
		"cost": {
			"research": 700,
			"mana": 10
		},
		"mod": {
			"scrolls.mod.research.max": 0.5,
			"codices.mod.research.max": 1.5
		},
		"group": "research"
	},
	{
		"id": "thaumictext",
		"name": "thaumic text",
		"desc": "Enchant your text so your books organize themselves.",
		"require": "g.lore>=16&&g.tier4>0&&g.enchanting>=3&&g.symboliccompression>0",
		"max": 1,
		"cost": {
			"research": 700,
			"mana": 10
		},
		"mod": {
			"codices.mod.research.max": 2,
			"tomes.mod.research.max": 5
		},
		"group": "research"
	},
	{
		"id": "explosiverunes",
		"name": "explosive runes",
		"desc": "Engineer a new runic script that allows each glyph to expand into an entire sentence in your mind's eye.",
		"require": "g.lore>=18&&g.tier5>0&&g.runelore>=3&&g.thaumictext>0",
		"max": 1,
		"cost": {
			"research": 700,
			"mana": 10
		},
		"mod": {
			"tomes.mod.research.max": 5,
			"languages.max": 1
		},
		"group": "research"
	},
	{
		"id": "ithkuil",
		"desc": "Create an entirely new eldritch language that removes any form of ambiguity.",
		"require": "g.lore>=20&&g.tier6>0&&g.spellcraft>=3&&g.explosiverunes>0",
		"max": 1,
		"cost": {
			"research": 700,
			"mana": 10
		},
		"mod": {
			"tomes.mod.research.max": 5,
			"languages.max": 3
		},
		"group": "research"
	},
	{
		"id": "voidtouch",
		"name": "touching the void",
		"require": "g.voidlore>=7",
		"max": 1,
		"desc": "Beyond the sphere of the planes lies a great void. Of its powers and dangers, the books are silent.",
		"cost": {
			"research": 10000,
			"tomes": 5
		},
		"warn": true,
		"mod": {
			"void.rate": 0.01,
			"stamina.rate": -0.5,
			"vigor.rate": -0.05,
			"voidlore.max": 3,
			"voidlore.rate": 3
		},
		"group": "bargain"
	},
	{
		"id": "goals1",
		"alias": "pursuit",
		"name": "dedicated goal",
		"desc": "The first step of becoming a wizard is finding the motivation.",
		"extdesc": "Mark an activity as a goal to perform it as much as possible.",
		"require": "g.lore>=6",
		"max": 1,
		"cost": {
			"research": 50,
			"arcana": 1
		},
		"mod": {
			"goals.max": 1
		},
		"group": "special"
	},
	{
		"id": "goals2",
		"name": "maniacal goals",
		"desc": "Monomaniacal pursuits are characteristic of all independent wizards.",
		"extdesc": "Mark an additional activity as a goal",
		"require": "g.tier1>0",
		"max": 1,
		"cost": {
			"research": 800,
			"arcana": 10
		},
		"mod": {
			"goals.max": 1
		},
		"group": "special"
	},
	{
		"id": "pursuit1",
		"name": "idle pursuits",
		"desc": "Any good wizard knows that the best rest is a change of occupation.",
		"extdesc": "Mark an activity as a pursuit, to perform while idle.",
		"require": "g.lore>=7",
		"max": 1,
		"cost": {
			"research": 25,
			"scrolls": 1
		},
		"mod": {
			"pursuits.max": 1
		},
		"group": "special"
	},
	{
		"id": "pursuit2",
		"name": "expanded interests",
		"desc": "Expand your idle interests to an additional area.",
		"extdesc": "Mark an additional activity as a pursuit",
		"require": "g.tier2>0",
		"max": 1,
		"cost": {
			"research": 800,
			"codices": 10
		},
		"mod": {
			"pursuits.max": 1
		},
		"group": "special"
	},
	{
		"id": "pursuit3",
		"name": "never-idle",
		"desc": "You do not remember the last time you had a truly idle moment.",
		"extdesc": "Mark yet another activity as a pursuit",
		"require": "g.tier5>0",
		"max": 1,
		"cost": {
			"research": 2500,
			"tomes": 5
		},
		"mod": {
			"pursuits.max": 1
		},
		"group": "special"
	},
	{
		"id": "somnambulist",
		"desc": "A wizard's dreams are full as waking hours.",
		"require": "g.dreamchamber>0&&g.tier5>0",
		"max": 1,
		"cost": {
			"dreams": 1,
			"arcana": 20
		},
		"mod": {
			"arcana.rate": 0.03,
			"dreams.rate": 0.0003
		},
		"flavor": "Every second of the night I live another life.",
		"group": "crafting"
	},
	{
		"id": "siversgate",
		"name": "siver's gate",
		"desc": "Siver knew true power comes only at great cost.",
		"flavor": "To stand before it would kill most men. to step beyond...",
		"warn": true,
		"group": "bargain",
		"require": "g.lore>=30&&g.tier4>0",
		"max": 1,
		"cost": {
			"research": 4000,
			"shadowgem": 15,
			"spiritgem": 15,
			"arcana": 10,
			"tomes": 3
		},
		"mod": {
			"hp.rate": -1.5,
			"player.defense": 30,
			"stamina.rate": -0.5,
			"vigor.rate": -0.05,
			"sp.rate": 0.0001
		}
	},
	{
		"id": "siversspirit",
		"name": "Plane of Spirits",
		"desc": "You sense countless sprits beyond the gate.",
		"flavor": "They seem to be in good spirits",
		"group": "bargain",
		"require": "g.lore>=30&&g.tier4>0&&g.spiritlore>=15",
		"need": "siversgate",
		"max": 1,
		"cost": {
			"research": 1000,
			"spirit": 20
		},
		"mod": {
			"planeslore.max": 1,
			"planeslore.rate": "10%",
			"spiritlore.max": 2,
			"spirit.rate": 0.3
		}
	},
	{
		"id": "siversshadow",
		"name": "Plane of Shadows",
		"desc": "Constant screaming, wailing and torture sounds can be heard as you approach the gate.",
		"flavor": "So this is where everybody gets sent to.",
		"group": "bargain",
		"require": "g.lore>=30&&g.tier4>0&&g.shadowlore>=15",
		"need": "siversgate",
		"max": 1,
		"cost": {
			"research": 1000,
			"shadow": 20
		},
		"mod": {
			"planeslore.max": 1,
			"planeslore.rate": "10%",
			"shadowlore.max": 2,
			"shadow.rate": 0.3
		}
	},
	{
		"id": "dishwasher",
		"name": "lesser hydrokinesis",
		"desc": "Learn how to gently nudge water with your will alone. Little more than a party trick for most, it is a great tool for cleaning the mountains of dishes your master's experiments leave behind.",
		"flavor": "Nobody ever enchanted a tool to do this on its own. Because everybody that could do so or afford it has more convenient options, like an apprentice or servants.",
		"require": "g.waterlore>=2&&g.t_tier0==0",
		"max": 1,
		"cost": {
			"arcana": 1,
			"research": 30,
			"water": 1
		},
		"mod": {
			"chores.cost.stamina": -0.2,
			"chores.cost.water": 0.2
		},
		"group": "magic"
	},
	{
		"id": "up_pitcher",
		"name": "bottomless pitcher",
		"tags": "watersource",
		"desc": "Unlimited source of water.",
		"flavor": "All you can drink.",
		"require": "g.water.max>=10",
		"max": 1,
		"cost": {
			"research": 200,
			"watergem": 1,
			"water": 5,
			"arcana": 1
		},
		"mod": {
			"waterlore.max": 1,
			"waterlore.rate": 0.1,
			"water.rate": 0.1,
			"waterdmg": 5
		},
		"group": "magic"
	},
	{
		"id": "evanescence",
		"name": "evanescence",
		"tags": "airsource",
		"desc": "Like you don't exist at all.",
		"require": "g.air.max>=8",
		"max": 1,
		"cost": {
			"research": 300,
			"air": 5,
			"airgem": 3,
			"arcana": 2
		},
		"mod": {
			"dodge": 2,
			"airlore.max": 2,
			"airlore.rate": 0.2,
			"air.rate": 0.05,
			"airdmg": 5
		},
		"flavor": "The nothing you've become.",
		"group": "magic"
	},
	{
		"id": "typhoon",
		"name": "typhoon",
		"tags": ["airsource", "watersource"],
		"desc": "The whirling chaos above the sea.",
		"require": "((g.air.max+g.t_airclass*5)>=15&&(g.water.max+g.t_waterclass*5)>=15)",
		"max": 1,
		"cost": {
			"research": 1000,
			"air": 10,
			"water": 10,
			"airgem": 5,
			"watergem": 5,
			"arcana": 5
		},
		"mod": {
			"dodge": 2,
			"airdmg": 10,
			"waterdmg": 10
		},
		"flavor": "Become one with the wind and water.",
		"group": "magic"
	},
	{
		"id": "autonomicmending",
		"name": "autonomic mending",
		"require": "g.anatomy>=5&&g.tier0>0",
		"max": 1,
		"desc": "Train your body to heal on its own.",
		"cost": {
			"research": 100,
			"mana": 10,
			"bloodgem": 5,
			"codices": 1
		},
		"mod": {
			"hp.rate": 0.5
		},
		"flavor": "I've had worse.",
		"group": "body"
	},
	{
		"id": "earthworks",
		"desc": "Strong walls around your home, to deter unwise attackers.",
		"require": "g.geosculpting>=5",
		"max": 2,
		"cost": {
			"gold": 300,
			"research": 250
		},
		"mod": {
			"geosculpting.max": 1,
			"player.defense": 5
		},
		"flavor": "Doubles as a burial mound.",
		"group": "knowledge"
	},
	{
		"id": "coretap",
		"name": "core tap",
		"desc": "Tap the world's core for endless heat.",
		"require": "(g.earthshaker>0||(g.t_earthclass+g.t_elementalclass)>=3)&&g.geosculpting>=6",
		"max": 1,
		"cost": {
			"gold": 5000,
			"research": 4000,
			"earthrune": 5
		},
		"mod": {
			"firelore.max": 3,
			"earthlore.max": 3,
			"geosculpting.max": 1,
			"earth.rate": 0.2,
			"fire.rate": 0.2
		},
		"group": "knowledge"
	},
	{
		"id": "tamedroads",
		"name": "tamed pathway",
		"require": "g.geomancer>0||(g.t_earthclass+g.t_elementalclass>=3)&&g.dist>=200",
		"max": 1,
		"desc": "Train the roads around your home to behave.",
		"cost": {
			"gold": 3000,
			"earthgem": 5,
			"earth": 10
		},
		"mod": {
			"dist": 100
		},
		"flavor": "Those good boys are perfect for keeping unwanted guests away.",
		"group": "exploration"
	},
	{
		"id": "hiddenchamber",
		"name": "hidden chamber",
		"tags": "t_underground",
		"desc": "A place to meditate in solitude, deep beneath the earth.",
		"max": 1,
		"require": "g.geosculpting>0",
		"cost": {
			"gold": 500,
			"research": 500,
			"earthgem": 5
		},
		"mod": {
			"concentrate.max": 1,
			"concentrate.rate": 0.4
		},
		"group": "knowledge"
	},
	{
		"id": "expandedlungs",
		"name": "expansive lungs",
		"desc": "All the air you require.",
		"require": "(g.t_airclass*2+g.t_elementalclass)>=2",
		"max": 1,
		"cost": {
			"arcana": 1,
			"airgem": 50
		},
		"mod": {
			"self.resist.water": 5,
			"airlore.rate": 0.1,
			"breath.max": 10,
			"breath.rate": 0.5
		},
		"group": "exploration"
	},
	{
		"id": "waterbreathing",
		"name": "water breathing",
		"desc": "Water is as air to you.",
		"require": "(g.t_waterclass*2+g.t_elementalclass)>=2",
		"max": 1,
		"cost": {
			"arcana": 1,
			"sp": 1,
			"watergem": 100
		},
		"mod": {
			"self.resist.water": 10,
			"waterlore.rate": 0.1,
			"breath.max": "100%",
			"breath.rate": 5
		},
		"group": "exploration"
	},
	{
		"id": "rockcollection",
		"name": "minerals collection",
		"desc": "Sorted by hardness.",
		"require": "g.geomancer>0||g.t_hammerclass>=2",
		"max": 3,
		"cost": {
			"gold": 500,
			"research": 1000
		},
		"mod": {
			"hammerlore.max": 1,
			"hammerlore.rate": 0.3
		},
		"flavor": "A fantastic way to test your strength.",
		"group": "knowledge"
	},
	{
		"id": "artificialmountain",
		"name": "raise mountain",
		"desc": "Leave your mark on this world.",
		"require": "g.earthshaker>0||g.t_earthclass>=2",
		"max": 1,
		"cost": {
			"gold": 5000,
			"research": 3000,
			"earthrune": 10
		},
		"result": {
			"fame": 5
		},
		"mod": {
			"gems.rate": 0.1,
			"act_mine.effect.gems": 0.1,
			"hammerlore.max": 2,
			"hammerlore.rate": 0.6,
			"geosculpting.max": 2
		},
		"group": "knowledge"
	},
	{
		"id": "constructquarry",
		"name": "magic quarry",
		"desc": "A rocky escarpment to conduct your excavations more efficiently.",
		"require": "geosculpting",
		"max": 3,
		"cost": {
			"gold": 1500,
			"research": 2000,
			"earthgem": 20
		},
		"mod": {
			"act_mine.effect.gems": 0.1,
			"hammerlore.max": 1,
			"hammerlore.rate": 0.3
		},
		"group": "knowledge"
	},
	{
		"id": "mythicanvil",
		"name": "mythic anvil",
		"desc": "Made of mythical metals, this anvil can withstand even a titan's power.",
		"require": "titan",
		"max": 1,
		"cost": {
			"gold": 10000,
			"research": 3000,
			"tomes": 10,
			"earthrune": 5
		},
		"mod": {
			"hammerlore.max": 2,
			"hammerlore.rate": 0.6,
			"geosculpting.max": 2,
			"crafting.max": 2
		},
		"group": "knowledge"
	},
	{
		"id": "undertunnels",
		"name": "subterranean pathways",
		"desc": "A twisting maze of indistinguishable passages spanning your domain.",
		"require": "g.geosculpting>=10",
		"max": 1,
		"cost": {
			"gold": 5000,
			"research": 10000,
			"earthrune": 1
		},
		"mod": {
			"dist": "25%"
		},
		"group": "exploration"
	},
	{
		"id": "innerfire",
		"name": "inner fire",
		"tags": "firesource",
		"desc": "Your body is a source of fire.",
		"flavor": "Ashes to ashes.",
		"require": "g.fire.max>=10",
		"max": 1,
		"cost": {
			"research": 300,
			"fire": 5,
			"firegem": 1,
			"arcana": 1
		},
		"mod": {
			"firedmg": 6,
			"firelore.max": 1,
			"firelore.rate": 0.1,
			"fire.rate": 0.05
		},
		"group": "magic"
	},
	{
		"id": "earthsoul",
		"name": "earth soul",
		"tags": "earthsource",
		"desc": "Your body is tuned to the earth.",
		"require": "g.earth.max>=10",
		"max": 1,
		"cost": {
			"research": 300,
			"earth": 5,
			"earthgem": 1,
			"arcana": 1
		},
		"mod": {
			"stamina.max": 2,
			"vigor.max": 2,
			"stamina.rate": 0.1,
			"vigor.rate": 0.01,
			"earthlore.max": 2,
			"earthlore.rate": 0.2,
			"earth.rate": 0.1,
			"earthdmg": 5
		},
		"group": "magic"
	},
	{
		"id": "heartofstone",
		"name": "heart of stone",
		"tags": "earthsource",
		"desc": "Ruthless as the barren earth.",
		"require": "g.geomancer>0||(g.earth.max+g.t_elementalclass*3+g.t_earthclass*4)>=25",
		"max": 1,
		"cost": {
			"research": 300,
			"earth": 5,
			"earthgem": 10,
			"arcana": 5
		},
		"mod": {
			"earthdmg": 10,
			"stamina.max": 1,
			"vigor.max": 1,
			"earthlore.max": 1,
			"earthlore.rate": 0.1,
			"earth.rate": 0.1
		},
		"group": "magic"
	},
	{
		"id": "airglobe",
		"name": "swirling globe",
		"tags": "airsource",
		"desc": "An unending supply of air.",
		"flavor": "Out of nothing at all.",
		"require": "g.air.max>=5",
		"max": 1,
		"cost": {
			"research": 300,
			"air": 5,
			"airgem": 1,
			"arcana": 1
		},
		"mod": {
			"airlore.max": 1,
			"airlore.rate": 0.1,
			"air.rate": 0.05
		},
		"group": "magic"
	},
	{
		"id": "bellows",
		"name": "ceaseless bellows",
		"desc": "These bellows run on their own.",
		"require": "g.crafting>=7&&g.air>0",
		"max": 1,
		"cost": {
			"gold": 250,
			"research": 300
		},
		"mod": {
			"crafting.max": 1,
			"crafting.rate": 0.1,
			"alchemy.max": 1,
			"alchemy.rate": 0.1
		},
		"group": "knowledge"
	},
	{
		"id": "mendicant",
		"desc": "Sacrifice luxury for higher attainments.",
		"need": "g.evil3==0&&g.good1>=1&&g.gold.max>=1000&&g.light.max>=8",
		"max": 1,
		"tags": "t_extremegood",
		"warn": true,
		"result": {
			"fame": 10
		},
		"mod": {
			"gold.max": "-10%",
			"spiritlore.max": 2,
			"spiritlore.rate": "10%",
			"lightlore.max": 2,
			"lightlore.rate": "10%"
		},
		"group": "knowledge"
	},
	{
		"id": "innersanctum",
		"name": "inner sanctum",
		"need": "g.mendicant>0&&g.truesight>0",
		"max": 1,
		"desc": "The halls of the mind are without limits.",
		"cost": {
			"lightgem": 5,
			"research": 5000
		},
		"mod": {
			"space.max": "10%"
		},
		"group": "housing"
	},
	{
		"id": "alembic",
		"desc": "Essential instrument in alchemical distilling.",
		"require": "g.tier0>0&&g.alchemy>=3",
		"max": 1,
		"cost": {
			"gold": 150,
			"research": 100
		},
		"mod": {
			"potions.max": 1,
			"potions.rate": 0.2,
			"potionessence.rate": 0.00014
		},
		"group": "knowledge"
	},
	{
		"id": "solidifier",
		"name": "crystal solidifier",
		"require": "g.alchemy>=7",
		"max": 1,
		"cost": {
			"research": 100,
			"codices": 5
		},
		"convert": {
			"input": {
				"gold": 0.2
			},
			"output": {
				"effect": {
					"gems": 0.02
				}
			}
		},
		"group": "materials"
	},
	{
		"id": "crucible",
		"name": "fine crucible",
		"desc": "Resiliant vessel for melting substances.",
		"require": "g.tier0>0&&g.alchemy>0",
		"max": 1,
		"cost": {
			"gold": 150
		},
		"mod": {
			"alchemy.max": 1,
			"alchemy.rate": 0.1,
			"fire.rate": 0.02
		},
		"group": "knowledge"
	},
	{
		"id": "pot",
		"name": "cooking pot",
		"desc": "A standard cooking pot.",
		"tags": "potsource",
		"need": "firesource",
		"max": 1,
		"flavor": "Boil 'em, mash 'em, stick 'em in a stew.",
		"cost": {
			"gold": 25
		},
		"mod": {
			"rest.effect.stamina": 0.1,
			"rest.effect.vigor": 0.01
		},
		"group": "rest"
	},
	{
		"id": "cauldron",
		"name": "cauldron",
		"desc": "Like a cooking pot, but larger.",
		"tags": "potsource",
		"require": ["tier1", "firesource"],
		"max": 1,
		"disable": "pot",
		"cost": {
			"gold": 150
		},
		"flavor": "Fire burn and cauldron bubble.",
		"mod": {
			"potions.rate": 0.1,
			"rest.effect.stamina": 0.12,
			"rest.effect.vigor": 0.012,
			"spirit.rate": 0.01,
			"potionessence.rate": 0.00014
		},
		"group": "rest"
	},
	{
		"id": "bagoftricks",
		"name": "bag of tricks",
		"tags": "tricksource",
		"require": "g.trickster>0&&g.crafting>=7",
		"max": 1,
		"cost": {
			"research": 100,
			"codices": 1,
			"gold": 200
		},
		"mod": {
			"gold.max": 50,
			"trickery.max": 1,
			"trickery.rate": 0.1,
			"gold.rate": 0.01
		},
		"group": "knowledge"
	},
	{
		"id": "cellar",
		"desc": "Add a cellar to your domicile.",
		"require": "tier1",
		"max": 1,
		"cost": {
			"gold": 500
		},
		"mod": {
			"space.max": 5
		},
		"group": "housing"
	},
	{
		"id": "expandcellar",
		"name": "expanded cellars",
		"desc": "Increase the size of your existing cellars.",
		"require": "cellar",
		"max": 1,
		"cost": {
			"gold": 700
		},
		"mod": {
			"cellar.mod.space.max": 5
		},
		"group": "housing"
	},
	{
		"id": "siegeperilous",
		"name": "siege perilous",
		"desc": "The fabled seat of destiny.",
		"require": "g.fame>=10",
		"max": 1,
		"cost": {
			"gold": 4000,
			"gems": 30
		},
		"result": {
			"fame": 1
		},
		"mod": {
			"allies.max": 4,
			"minions.max": 2,
			"lightlore.max": 2,
			"lightlore.rate": 0.2
		},
		"group": "minions"
	},
	{
		"id": "up_runecrafter",
		"actname": "Hire Dwarven Runecrafter",
		"name": "dwarven runecrafter",
		"desc": "Hire a dwarf to craft runestones for you.",
		"require": "g.runelore>=5&&g.tier3>0",
		"need": "(g.up_evil_runecrafter + g.up_runecrafter) <5",
		"needtext": "Must own less than 5 total Dwarven Runecrafters or Skeletal Runecarvers.",
		"max": 5,
		"tags": "t_extremegood",
		"cost": {
			"gems": 100
		},
		"mod": {
			"space": 5
		},
		"convert": {
			"input": {
				"gold": 0.4
			},
			"output": {
				"effect": {
					"runestones": 0.012
				}
			}
		},
		"group": "materials"
	},
	{
		"id": "up_evil_runecrafter",
		"actname": "Animate Skeletal Runecarver",
		"name": "Skeletal Runecarver",
		"desc": "Make a skeleton to craft runestones for you.",
		"require": "g.runelore>=5&&g.tier3>0",
		"need": "(g.up_evil_runecrafter + g.up_runecrafter) <5",
		"needtext": "Must own less than 5 total Dwarven Runecrafters or Skeletal Runecarvers.",
		"max": 5,
		"tags": "t_extremeevil",
		"cost": {
			"bloodgem": 25,
			"shadowgem": 25
		},
		"mod": {
			"space": 5
		},
		"convert": {
			"input": {
				"gold": 0.4
			},
			"output": {
				"effect": {
					"runestones": 0.012
				}
			}
		},
		"group": "materials"
	},
	{
		"id": "up_apprentice",
		"name": "apprentice",
		"desc": "Take on an apprentice to do work for you.",
		"require": "tier2",
		"max": 1,
		"cost": {
			"gold": 300,
			"tomes": 1,
			"research": 1000
		},
		"mod": {
			"space": 5,
			"gold.rate": 0.1,
			"scrolls.rate": 0.02,
			"scribescroll.cost.research": -1,
			"codices.rate": 0.01,
			"tomes.rate": 0.001
		},
		"flavor": "Why does it cost money?",
		"group": "materials"
	},
	{
		"id": "basement",
		"desc": "Install a basement beneath your home.",
		"require": "g.tier1>0&&g.earthlore>=3",
		"max": 1,
		"cost": {
			"gold": 1000,
			"research": 500
		},
		"mod": {
			"space.max": "25%"
		},
		"group": "housing"
	},
	{
		"id": "oracularinsight",
		"name": "oracular insight",
		"require": "oracle",
		"max": 1,
		"desc": "You see things before they happen.",
		"cost": {
			"research": 300,
			"arcana": 5
		},
		"mod": {
			"dodge": 1
		},
		"group": "body"
	},
	{
		"id": "deepsteelforging",
		"name": "core steel forging",
		"require": "g.titan>0&&(g.coretap>0||g.mythicanvil>0)",
		"max": 1,
		"desc": "Relocate your forge to the very core of the world.",
		"cost": {
			"earthrune": 25,
			"research": 1000,
			"runestones": 3,
			"tomes": 10,
			"scrolls": 20,
			"codices": 40,
			"sindel": 3
		},
		"mod": {
			"smith_work.length": 22,
			"smith_work.result.gold": 15,
			"smith_work.result.deepsteel": 0.0416
		},
		"group": "crafting"
	},
	{
		"id": "wizardhall",
		"name": "wizard's hall",
		"tags": "t_hall",
		"slot": "hall",
		"require": "g.tier5>0",
		"desc": "Construct a Wizard's Hall.",
		"buy": {
			"research": 35000,
			"arcana": 30,
			"gems": 50,
			"managem": 25,
			"airgem": 15,
			"firegem": 15,
			"earthgem": 15,
			"watergem": 15,
			"spiritgem": 15,
			"runestones": 30,
			"tomes": 50,
			"gold": 15000
		},
		"result": {
			"evt_hall": true
		},
		"mod": {
			"t_runes.max": 10,
			"tomes.rate": 0.003,
			"sp.rate": 0.0001
		},
		"group": "special"
	},
	{
		"id": "fireplane",
		"slot": "werry",
		"name": "fire werry",
		"tags": "t_werry",
		"desc": "A hidden pocket of the plane of ash and fire.",
		"require": "g.tier5>0&&g.gate>0&&g.firelore>=10",
		"need": ["gate"],
		"buy": {
			"firerune": 7,
			"gold": 20000,
			"tomes": 10
		},
		"mod": {
			"space.max": "30%",
			"waterdmg": -10,
			"water.max": -2,
			"player.resist.fire": "1+10%",
			"firedmg": 15
		},
		"group": "plane"
	},
	{
		"id": "fireplanesecrets",
		"name": "fire plane discoveries",
		"desc": "Building the werry taught you much of the plane of fire.",
		"require": "g.fireplane.owned",
		"mod": {
			"firelore.max": 2
		}
	},
	{
		"id": "waterplane",
		"name": "water werry",
		"slot": "werry",
		"desc": "A pocket of the endless sea.",
		"tags": "t_werry",
		"require": "g.tier5>0&&g.gate>0&&g.waterlore>=10",
		"need": ["gate"],
		"buy": {
			"waterrune": 7,
			"gold": 20000,
			"tomes": 10
		},
		"mod": {
			"space.max": "30%",
			"firedmg": -10,
			"fire.max": -2,
			"player.resist.water": "1+10%",
			"waterdmg": 15
		},
		"group": "plane"
	},
	{
		"id": "waterplanesecrets",
		"name": "water plane discoveries",
		"desc": "Building the werry taught you much of the plane of water.",
		"require": "g.waterplane.owned",
		"mod": {
			"waterlore.max": 2
		}
	},
	{
		"id": "earthplane",
		"name": "earth werry",
		"desc": "A space carved from the plane of earth.",
		"tags": "t_werry",
		"slot": "werry",
		"require": "g.tier5>0&&g.gate>0&&g.earthlore>=10",
		"need": ["gate"],
		"buy": {
			"earthrune": 7,
			"gold": 20000,
			"tomes": 10
		},
		"mod": {
			"space.max": "30%",
			"airdmg": -10,
			"air.max": -2,
			"player.resist.earth": "1+10%",
			"earthdmg": 15
		},
		"group": "plane"
	},
	{
		"id": "earthplanesecrets",
		"name": "earth plane discoveries",
		"desc": "Building the werry taught you much of the plane of earth.",
		"require": "g.earthplane.owned",
		"mod": {
			"earthlore.max": 2
		}
	},
	{
		"id": "airplane",
		"name": "wind werry",
		"desc": "An island floating in an endless sky.",
		"tags": "t_werry",
		"slot": "werry",
		"require": "g.tier5>0&&g.gate>0&&g.airlore>=10",
		"need": ["gate"],
		"buy": {
			"airrune": 7,
			"gold": 20000,
			"tomes": 10
		},
		"mod": {
			"space.max": "30%",
			"earthdmg": -10,
			"earth.max": -2,
			"player.resist.air": "1+10%",
			"airdmg": 15
		},
		"group": "plane"
	},
	{
		"id": "airplanesecrets",
		"name": "air plane discoveries",
		"desc": "Building the werry taught you much of the plane of air.",
		"require": "g.airplane.owned",
		"mod": {
			"airlore.max": 2
		}
	},
	{
		"id": "familiarcat",
		"name": "cat familiar",
		"desc": "Your familiar is a cat, as dark as the night that spawned him.",
		"flavor": "Port to geese",
		"warn": true,
		"group": "familliar",
		"tags": "t_familiar",
		"require": "summonfamiliar",
		"max": 1,
		"lock": "t_familiar",
		"mod": {
			"summoning.max": 1,
			"summoning.rate": 0.1,
			"planeslore.max": 1,
			"charms.max": 1,
			"charms.rate": 0.1,
			"animals.max": 2,
			"animals.rate": 0.2,
			"petfamiliar.result.stress": -50
		}
	},
	{
		"id": "familiarowl",
		"name": "owl familiar",
		"desc": "Your familiar is an owl, most active at night, just like you are.",
		"warn": true,
		"group": "familliar",
		"tags": "t_familiar",
		"require": "summonfamiliar",
		"max": 1,
		"lock": "t_familiar",
		"mod": {
			"summoning.max": 1,
			"summoning.rate": 0.1,
			"planeslore.max": 1,
			"concentrate.max": 1,
			"concentrate.rate": 0.4,
			"scrying.max": 1,
			"scrying.rate": 0.1,
			"petfamiliar.result.stress": -50
		}
	},
	{
		"id": "familiarkobold",
		"name": "kobold familiar",
		"desc": "Your familiar is a kobold, greedy for gold.",
		"warn": true,
		"group": "familliar",
		"tags": "t_familiar",
		"require": "summonfamiliar",
		"max": 1,
		"lock": "t_familiar",
		"mod": {
			"summoning.max": 1,
			"summoning.rate": 0.1,
			"planeslore.max": 1,
			"act_mine.effect.gold.min": 0.1,
			"act_mine.effect.gold.max": 0.1,
			"spingold.effect.gold": 0.1,
			"petfamiliar.result.gold": 50,
			"petfamiliar.result.stress": -25
		}
	},
	{
		"id": "familiarimp",
		"name": "imp familiar",
		"desc": "Your familiar is an imp, devious and prone to mischief.",
		"warn": true,
		"group": "familliar",
		"tags": "t_familiar",
		"require": "summonfamiliar",
		"max": 1,
		"lock": "t_familiar",
		"mod": {
			"summoning.max": 1,
			"summoning.rate": 0.1,
			"planeslore.max": 1,
			"trickery.max": 1,
			"trickery.rate": 0.1,
			"heist.result.gold": 15,
			"petfamiliar.result.gems": 1,
			"petfamiliar.result.stress": -25
		}
	},
	{
		"id": "familiartome",
		"name": "tome familiar",
		"desc": "Your familiar is an animated tome, filled with arcane knowledge and a thirst for expansion.",
		"warn": true,
		"group": "familliar",
		"tags": "t_familiar",
		"require": "summonfamiliar",
		"max": 1,
		"lock": "t_familiar",
		"mod": {
			"summoning.max": 1,
			"summoning.rate": 0.1,
			"planeslore.max": 1,
			"tomes.max": 5,
			"lore.max": 2,
			"lore.rate": 0.2,
			"petfamiliar.result.research": 100,
			"petfamiliar.result.stress": -25
		}
	},
	{
		"id": "runic_reinforcement",
		"name": "runic reinforcement",
		"require": "g.runicdmg>100",
		"max": 1,
		"desc": "Learn how to apply your mastery of runes to your runic weapons.",
		"cost": {
			"tomes": 80,
			"research": 15000,
			"gems": 150,
			"runestones": 50
		},
		"mod": {
			"runelore.mod.runicdmg": 2
		},
		"flavor": "Most mages just treat runic enchantments as a tedious, if effective endeavor. Why bother finding out why it works, if you can just repeat the patterns from a book?",
		"group": "martial"
	},
	{
		"id": "bloodstorage1",
		"name": "blood gem cache",
		"require": "g.bloodgem>0",
		"max": 1,
		"desc": "These things seem... vital. Find room for more.",
		"cost": {
			"research": 200
		},
		"mod": {
			"bloodgem.max": 6
		},
		"group": "storage"
	},
	{
		"id": "bloodstorage2",
		"name": "blood gem stash",
		"require": "bloodstorage1",
		"max": 1,
		"desc": "More. You need more. Secrete them away from prying eyes.",
		"cost": {
			"research": 300
		},
		"mod": {
			"bloodgem.max": 8
		},
		"group": "storage"
	},
	{
		"id": "bloodstorage3",
		"name": "blood gem arsenal",
		"require": "bloodstorage2",
		"max": 1,
		"desc": "Closer. Closer. Somewhere they'll never leave your sight.",
		"cost": {
			"research": 500
		},
		"mod": {
			"bloodgem.max": 12
		},
		"group": "storage"
	},
	{
		"id": "bodyrebuild",
		"name": "corporeal reconstruction",
		"require": "g.anatomy>=20",
		"max": 1,
		"desc": "You've learned better. Perfected the science. You can recreate yourself perfect and free of mankind's flaws.",
		"cost": {
			"research": 5000,
			"tomes": 10,
			"bloodgem": 50,
			"ichor": 2
		},
		"mod": {
			"anatomy.mod.hp.max": 1
		},
		"flavor": "The optic nerve doesn't have to connect like that. The joints are inefficient. Why does that nerve take such a detour? So many baffling errors.",
		"group": "body"
	},
	{
		"id": "herbalremedy",
		"name": "herbal remedy",
		"require": "g.herbs>=1",
		"max": 6,
		"desc": "Create a herbal mixture to repair the damage in your body that living as a starving street orphan brought with it.",
		"flavor": "The bitter taste serves as better motivator to feed yourself properly than hunger ever could.",
		"cost": {
			"research": 100,
			"herbs": "10+(5*g.herbalremedy)"
		},
		"mod": {
			"hp.max": 2
		},
		"group": "body"
	},
	{
		"id": "stonyresilience",
		"name": "stony resilience",
		"require": "g.tier4>0",
		"need": "(g.earthlore+g.gargoyle+g.grotesque)>g.stonyresilience",
		"needtext": "Your geomancy level must be higher than the amount of times you bought this upgrade. Gargoyles and grotesques are counted as 1 geomancy levels each for this requirement.",
		"max": 8,
		"desc": "Inspired by your statuary, make your flesh as enduring as granite.",
		"cost": {
			"earthrune": 1
		},
		"mod": {
			"hp.max": 2
		},
		"group": "body"
	},
	{
		"id": "ablativebarrier",
		"name": "ablative barrier",
		"desc": "The circle's ward shields you from harm.",
		"require": "g.arcana>0",
		"need": "wardsource",
		"max": 2,
		"cost": {
			"gold": 100,
			"arcana": "1+g.ablativebarrier",
			"research": 100
		},
		"mod": {
			"barrier.max": 5,
			"barrier.rate": 0.03
		},
		"group": "body"
	},
	{
		"id": "unquenchableflames",
		"name": "unquenchable flames",
		"require": "g.innerfire>0&&g.tier2>0",
		"max": 1,
		"desc": "The flame of life within you refuses to go out.",
		"cost": {
			"firegem": 10,
			"research": 1000,
			"codices": 10
		},
		"result": {
			"hp.max": 15
		},
		"group": "body"
	},
	{
		"id": "facecollection",
		"name": "hallway of faces",
		"require": "g.jester>0",
		"max": 1,
		"desc": "Start collecting strangers' faces as disguises.",
		"cost": {
			"research": 777,
			"chaosgem": 77,
			"herbs": 7
		},
		"result": {
			"chaosdmg": 0.1
		},
		"group": "magic"
	},
	{
		"id": "spiritpranks",
		"name": "ghostly pranks",
		"require": "g.spiritlore>=3&&g.trickery>=3",
		"max": 1,
		"desc": "Recruit idle spirits to play pranks on passersby.",
		"cost": {
			"gems": 3,
			"spirit": 3,
			"research": 77
		},
		"result": {
			"trickery.max": 1
		},
		"group": "knowledge"
	},
	{
		"id": "windsecrets",
		"name": "aerial eavesdropping",
		"require": "g.airlore>=3&&g.trickery>=3",
		"max": 1,
		"desc": "Eavesdrop upon the breeze to gather gossip and blackmail.",
		"cost": {
			"gems": 3,
			"air": 3,
			"research": 77
		},
		"result": {
			"trickery.max": 1
		},
		"group": "knowledge"
	},
	{
		"id": "watertricks",
		"name": "icy games",
		"require": "g.waterlore>=3&&g.trickery>=3",
		"max": 1,
		"desc": "Teach the spirits of water a game about freezing the villagers' hair and laundry.",
		"cost": {
			"gems": 3,
			"water": 3,
			"research": 77
		},
		"result": {
			"trickery.max": 1
		},
		"group": "knowledge"
	},
	{
		"id": "trickspying",
		"name": "magical spying",
		"require": "g.divination>=3&&g.trickery>=3",
		"max": 1,
		"desc": "Use your new magics to furtively poke and pry into people's private affairs.",
		"cost": {
			"gems": 3,
			"spirit": 3,
			"research": 77
		},
		"result": {
			"trickery.max": 1
		},
		"group": "knowledge"
	},
	{
		"id": "faceharvest",
		"name": "harvesting faces",
		"require": "g.facecollection>0&&g.embalming>=3&&g.evil3>0",
		"max": 1,
		"desc": "It occurs to you that you could make collecting faces so much quicker and easier.",
		"cost": {
			"codices": 13
		},
		"mod": {
			"facecollect.cost.herbs": 1,
			"facecollect.rate": "50%"
		},
		"flavor": "It just needs the aid of a knife and a few preservatives.",
		"group": "crafting"
	},
	{
		"id": "facescans",
		"name": "scanning faces",
		"require": "g.facecollection>0&&g.automatasculpting>=3&&g.mechamancer>0",
		"max": 2,
		"desc": "Calibrating your automata's sensors for facial recognition should speed the process.",
		"cost": {
			"gold": 10000,
			"research": 5000,
			"tomes": 10,
			"automatas": 5
		},
		"mod": {
			"facecollect.rate": "25%"
		},
		"group": "crafting"
	},
	{
		"id": "geomeditation",
		"name": "earthly attunement",
		"require": "g.geosculpting>=5",
		"max": 1,
		"desc": "Ponder upon your newfound connection to the earth.",
		"cost": {
			"research": 1000,
			"earthgem": 25,
			"codices": 5
		},
		"mod": {
			"earthlore.max": 5,
			"geosculpting.max": 3
		},
		"group": "knowledge"
	},
	{
		"id": "extracandles",
		"name": "extra candles",
		"require": "g.waxcandle>0&&g.gold.max>=200",
		"desc": "More candles, more!",
		"max": 2,
		"cost": {
			"gold": 10
		},
		"mod": {
			"candle.max": 4
		},
		"group": "storage"
	},
	{
		"id": "bolthole",
		"name": "bolthole",
		"tags": "t_underground",
		"desc": "A portal to a safe place deep underground, for exploration and experiments.",
		"max": 1,
		"require": "g.tier4>0&&(g.earthlore+g.shadowlore+g.planeslore>=15)&&(g.cellar+g.basement>0)",
		"need": "gate",
		"cost": {
			"gold": 500,
			"research": 2500,
			"earthgem": 25
		},
		"mod": {
			"space.max": 5
		},
		"group": "housing"
	},
	{
		"id": "backyard",
		"name": "backyard",
		"tags": "outdoors",
		"desc": "A portal to a safe place far into the wilderness, for relaxation and landscaping.",
		"max": 1,
		"require": "g.tier4>0&&(g.naturelore+g.planeslore>=10)",
		"need": "gate",
		"cost": {
			"gold": 500,
			"research": 2500,
			"naturegem": 25
		},
		"mod": {
			"space.max": 5
		},
		"group": "housing"
	},
	{
		"id": "conlanging",
		"name": "rune construction",
		"require": "g.runelore>=5",
		"need": "g.runestones>=(15*(1+g.conlanging))",
		"needtext": "You need to have 15 more runestones than the last time you took this upgrade, starting at 15 and ending at 75.",
		"max": 5,
		"desc": "The ancient runic languages of yore were mostly lost in the Rending. Create your own.",
		"cost": {
			"research": 1000,
			"codices": 5
		},
		"mod": {
			"runelore.max": 1,
			"research.max": "20%"
		},
		"group": "knowledge"
	},
	{
		"id": "chantrest",
		"name": "chant",
		"tags": ["t_restmod", "t_extremegood"],
		"slot": "leisure",
		"max": 1,
		"require": "(g.t_divinationclass+g.t_lightclass+g.mage)>0",
		"need": "g.evil2<=0",
		"needtext": "Cannot be sinister.",
		"buy": {
			"light": 5
		},
		"mod": {
			"t_rest.effect.virtue": 1.5,
			"t_rest.effect.stress": -0.2,
			"t_rest.effect.hp": 0.1,
			"t_rest.effect.light": 0.2,
			"t_rest.effect.evilamt": -0.5
		},
		"group": "rest"
	},
	{
		"id": "naturecamprest",
		"tags": "t_restmod",
		"name": "commune",
		"slot": "leisure",
		"max": 1,
		"desc": "Commune with natural forces.",
		"require": "g.naturelore>=12",
		"buy": {
			"nature": 5
		},
		"mod": {
			"t_rest.effect.stress": -0.4,
			"t_rest.effect.nature": 0.2
		},
		"group": "rest"
	},
	{
		"id": "up_slumber",
		"max": 1,
		"name": "Lucid Dreaming",
		"require": "g.dreamchamber>0&&g.runner.max>=3",
		"extdesc": "Replaces Relax with a superior rest action.",
		"desc": "It is within a grand dream that an oneiromancer can do the impossible.",
		"flavor": "You almost wish to never wake up again.",
		"cost": {
			"arcana": 20
		},
		"disable": ["rest"],
		"result": {
			"slumber": true
		},
		"group": "rest"
	},
	{
		"id": "enchanted_study",
		"name": "Enchanted Study",
		"desc": "Using your arcane powers, enchant the texts populating your study's shelves to whisper their hidden wisdoms.",
		"flavor": "For what good is a wizard without grimoires as magical as himself?",
		"require": "g.codices>=100&&g.enchanting>=6",
		"need": "studyroom",
		"needtext": "Study",
		"cost": {
			"arcana": 8,
			"gold": 1000,
			"research": 1000
		},
		"mod": {
			"studyroom.mod.scrolls.rate": 0.05,
			"studyroom.mod.scribescroll.cost.mana": -0.1,
			"studyroom.mod.bindcodex.cost.mana": -0.2,
			"studyroom.mod.compiletome.cost.codices": -1
		},
		"group": "furniture"
	},
	{
		"id": "t_0",
		"name": "Solitary Magic",
		"desc": "Some say the study of magic doesn't truly begin until apprenticeship ends. People say a lot of things.",
		"max": 1,
		"wizardtier": true,
		"mod": {
			"research.max": 15,
			"buyscroll.result.scrolls": 1,
			"buyscroll.cost.gold": 20,
			"player.hp.max": 10,
			"player.tohit": 1,
			"ablativebarrier.max": 2
		}
	},
	{
		"id": "t_1",
		"name": "Professional Magick",
		"wizardtier": true,
		"max": 1,
		"desc": "Every province has its handful of runaway apprentices and failed Adepts. It's not uncommon for thieves and rangers to know a spell or two. They are nothing compared to the talents of a true professional.",
		"disable": ["prestidigitation"],
		"mod": {
			"crafting.max": 1,
			"arcanebody.max": 1,
			"occultendure.max": 1,
			"crystalmind.max": 1,
			"buyscroll.result.scrolls": 1,
			"buyscroll.cost.gold": 30,
			"ablativebarrier.max": 3
		}
	},
	{
		"id": "t_2",
		"name": "Arcane Ascendant",
		"wizardtier": true,
		"max": 1,
		"desc": "The masses of arcane dabblers never reach such heights.",
		"mod": {
			"lore.max": 2,
			"arcanebody.max": 1,
			"occultendure.max": 1,
			"crystalmind.max": 1,
			"buyscroll.result.scrolls": 1,
			"buyscroll.cost.gold": 40,
			"ablativebarrier.max": 4
		}
	},
	{
		"id": "t_3",
		"name": "Magical Mastery",
		"wizardtier": true,
		"max": 1,
		"desc": "You are a master of your field of magic.",
		"mod": {
			"lore.max": 3,
			"crafting.max": 2,
			"arcanebody.max": 1,
			"occultendure.max": 1,
			"crystalmind.max": 1,
			"buyscroll.result.scrolls": 1,
			"buyscroll.cost.gold": 50,
			"ablativebarrier.max": 5
		}
	},
	{
		"id": "t_4",
		"name": "Supreme Sorcery",
		"wizardtier": true,
		"max": 1,
		"desc": "Not even the masters could challenge you.",
		"disable": ["buyscroll"],
		"mod": {
			"lore.max": 4,
			"crafting.max": 2,
			"arcanebody.max": 1,
			"occultendure.max": 1,
			"crystalmind.max": 1,
			"ablativebarrier.max": 5
		}
	},
	{
		"id": "t_5",
		"name": "Dhrunic Magic",
		"wizardtier": true,
		"max": 1,
		"desc": "Magic from a forgotten age.",
		"mod": {
			"lore.max": 4,
			"crafting.max": 2,
			"arcanebody.max": 1,
			"arcanebody2.max": 2,
			"occultendure.max": 1,
			"crystalmind.max": 2,
			"ablativebarrier.max": 6
		}
	},
	{
		"id": "t_6",
		"name": "Ageless Magic",
		"wizardtier": true,
		"max": 1,
		"desc": "Ages of the world come and go; only these endure.",
		"mod": {
			"lore.max": 3,
			"crafting.max": 4,
			"arcanebody.max": 1,
			"arcanebody2.max": 1,
			"occultendure.max": 1,
			"crystalmind.max": 1,
			"ablativebarrier.max": 7
		}
	},
	{
		"id": "internalizelore",
		"name": "internalize lore",
		"desc": "Etch the ancient secrets of your tomes into your memory.",
		"max": 10,
		"require": "g.tomes>=10",
		"need": "g.tomes>=((g.internalizelore+1)*10)",
		"needtext": "Each purchase needs 10 more tomes than the previous, starting with 10 for the first and ending with 100 for the tenth.",
		"mod": {
			"lore.max": 1
		},
		"flavor": "Much that is lost can be remembered again."
	},
	{
		"id": "gate",
		"name": "dhrunic nexus",
		"desc": "A nexus of portals, leading to all kinds of places and dimensions.",
		"require": "g.planeslore>=10&&g.tier4>0",
		"max": 1,
		"cost": {
			"gold": 12000,
			"tomes": 10,
			"runestones": 5,
			"arcana": 25
		}
	},
	{
		"id": "tool_herbalist",
		"name": "tool of the trade",
		"require": "g.herbalist>0",
		"desc": "Your master offers you an old sickle. 'I used this one for years, so it should be good enough for you.'",
		"mod": {
			"gatherherbs.cost.stamina": -1
		}
	},
	{
		"id": "tool_scribe",
		"name": "tool of the trade",
		"require": "g.scribe>0",
		"desc": "Your master offers you an old quill. 'Used this one for quite a few of the books you've read, so don't even think about complaining.'",
		"mod": {
			"scribescroll.cost.research": -1,
			"bindcodex.cost.mana": -0.3
		}
	},
	{
		"id": "tool_falconer",
		"name": "tool of the trade",
		"require": "g.falconer>0",
		"desc": "Your master offers you an old glove. 'My falcons are used to this one, just don't let them get into the holes.'",
		"mod": {
			"tendanimals.run.stamina": -0.05,
			"chores.cost.stamina": -0.05
		}
	},
	{
		"id": "stone_working_kit",
		"name": "stone working kit",
		"require": "g.loc_orrem>0",
		"desc": "The finest tools for crafting runes, reinvented after you discovered the secrets of lost Orrem.",
		"mod": {
			"craftrune.cost.managem": -1,
			"craftrune.cost.mana": 2,
			"craftrune.length": -4,
			"craftfirerune.cost.firegem": -2,
			"craftfirerune.cost.fire": 2,
			"craftfirerune.length": -4,
			"craftearthrune.cost.earthgem": -2,
			"craftearthrune.cost.earth": 2,
			"craftearthrune.length": -4,
			"craftairrune.cost.airgem": -2,
			"craftairrune.cost.air": 2,
			"craftairrune.length": -4,
			"craftwaterrune.cost.watergem": -2,
			"craftwaterrune.cost.water": 2,
			"craftwaterrune.length": -4,
			"craftspiritrune.cost.spiritgem": -2,
			"craftspiritrune.cost.spirit": 2,
			"craftspiritrune.length": -4
		}
	},
	{
		"id": "botanical_kit",
		"name": "botanical kit",
		"require": "g.treffilwoods>0",
		"desc": "A wooden box brimming with tools for gathering and preserving herbs, flowers, and roots.",
		"mod": {
			"herbs.max": 20,
			"gatherherbs.result.herbalism.exp": 2,
			"gatherherbs.result.herbs": 3,
			"act_garden.effect.herbs": 0.1,
			"act_garden.effect.research": 0.5
		}
	},
	{
		"id": "phoenix_quill",
		"name": "phoenix quill",
		"require": "g.rithel>0||g.phoenix.value>=10",
		"desc": "A quill found in an ancient nest at Rithel, tempered in the ash pile of a phoenix.",
		"mod": {
			"scribescroll.result.scrolls": 0.1,
			"scrollloom.mod.research.convert.output.effect.scrolls": 0.0002,
			"bindcodex.result.codices": 0.1,
			"codexloom.mod.scrolls.convert.output.effect.codices": 0.0002,
			"compiletome.result.tomes": 0.1,
			"tomeloom.mod.codices.convert.output.effect.tomes": 0.0002
		}
	},
	{
		"id": "enchanted_fountain_pen",
		"name": "enchanted fountain pen",
		"require": "g.genezereth>0",
		"desc": "A moonstone pen retrieved from Genezereth, imbued with magic to make its ink flow without error.",
		"mod": {
			"scribescroll.cost.mana": -0.1,
			"bindcodex.cost.mana": -0.3,
			"bindcodex.cost.scrolls": -1
		}
	},
	{
		"id": "bookcarousel",
		"name": "book carousel",
		"require": "g.tier3>0&&g.crafting>=7",
		"desc": "A device that looks a little like a waterwheel, with seven shelves to switch between books at your leisure.",
		"cost": {
			"research": 500,
			"gold": 200
		},
		"mod": {
			"codices.mod.research.rate": 0.03,
			"tomes.mod.research.rate": 0.2
		},
		"flavor": "You're getting sick of this. A mighty wizard such as you shouldn't be limited to looking at one book at once."
	}
]
